^C:\DEVELOPER\OPENFRAMEWORKS\OF_V0.8.4_VS_RELEASE\APPS\MYAPPS\OFXEYEFACETEST\SRC\OFAPP.CPP
C:\DEVELOPER\OPENFRAMEWORKS\OF_V0.8.4_VS_RELEASE\APPS\MYAPPS\OFXEYEFACETEST\SRC\OFAPP.H
C:\DEVELOPER\OPENFRAMEWORKS\OF_V0.8.4_VS_RELEASE\LIBS\OPENFRAMEWORKS\OFMAIN.H
C:\DEVELOPER\OPENFRAMEWORKS\OF_V0.8.4_VS_RELEASE\LIBS\OPENFRAMEWORKS\UTILS\OFCONSTANTS.H
C:\PROGRAM FILES (X86)\MICROSOFT VISUAL STUDIO 11.0\VC\INCLUDE\STDINT.H
C:\PROGRAM FILES (X86)\MICROSOFT VISUAL STUDIO 11.0\VC\INCLUDE\CRTDEFS.H
C:\PROGRAM FILES (X86)\MICROSOFT VISUAL STUDIO 11.0\VC\INCLUDE\SAL.H
C:\PROGRAM FILES (X86)\MICROSOFT VISUAL STUDIO 11.0\VC\INCLUDE\CONCURRENCYSAL.H
C:\PROGRAM FILES (X86)\MICROSOFT VISUAL STUDIO 11.0\VC\INCLUDE\VADEFS.H
C:\PROGRAM FILES (X86)\WINDOWS KITS\8.0\INCLUDE\UM\WINDOWS.H
C:\PROGRAM FILES (X86)\WINDOWS KITS\8.0\INCLUDE\SHARED\WINAPIFAMILY.H
C:\PROGRAM FILES (X86)\WINDOWS KITS\8.0\INCLUDE\SHARED\SDKDDKVER.H
C:\PROGRAM FILES (X86)\MICROSOFT VISUAL STUDIO 11.0\VC\INCLUDE\EXCPT.H
C:\PROGRAM FILES (X86)\MICROSOFT VISUAL STUDIO 11.0\VC\INCLUDE\STDARG.H
C:\PROGRAM FILES (X86)\WINDOWS KITS\8.0\INCLUDE\SHARED\WINDEF.H
C:\PROGRAM FILES (X86)\WINDOWS KITS\8.0\INCLUDE\SHARED\MINWINDEF.H
C:\PROGRAM FILES (X86)\WINDOWS KITS\8.0\INCLUDE\SHARED\SPECSTRINGS.H
C:\PROGRAM FILES (X86)\WINDOWS KITS\8.0\INCLUDE\SHARED\SPECSTRINGS_STRICT.H
C:\PROGRAM FILES (X86)\WINDOWS KITS\8.0\INCLUDE\SHARED\SPECSTRINGS_UNDEF.H
C:\PROGRAM FILES (X86)\WINDOWS KITS\8.0\INCLUDE\SHARED\DRIVERSPECS.H
C:\PROGRAM FILES (X86)\WINDOWS KITS\8.0\INCLUDE\SHARED\SDV_DRIVERSPECS.H
C:\PROGRAM FILES (X86)\WINDOWS KITS\8.0\INCLUDE\UM\WINNT.H
C:\PROGRAM FILES (X86)\MICROSOFT VISUAL STUDIO 11.0\VC\INCLUDE\CTYPE.H
C:\PROGRAM FILES (X86)\WINDOWS KITS\8.0\INCLUDE\SHARED\KERNELSPECS.H
C:\PROGRAM FILES (X86)\WINDOWS KITS\8.0\INCLUDE\SHARED\BASETSD.H
C:\PROGRAM FILES (X86)\WINDOWS KITS\8.0\INCLUDE\SHARED\GUIDDEF.H
C:\PROGRAM FILES (X86)\MICROSOFT VISUAL STUDIO 11.0\VC\INCLUDE\STRING.H
C:\PROGRAM FILES (X86)\WINDOWS KITS\8.0\INCLUDE\SHARED\PSHPACK4.H
C:\PROGRAM FILES (X86)\WINDOWS KITS\8.0\INCLUDE\SHARED\POPPACK.H
C:\PROGRAM FILES (X86)\WINDOWS KITS\8.0\INCLUDE\SHARED\PSHPACK2.H
C:\PROGRAM FILES (X86)\WINDOWS KITS\8.0\INCLUDE\SHARED\PSHPACK8.H
C:\PROGRAM FILES (X86)\WINDOWS KITS\8.0\INCLUDE\SHARED\APISET.H
C:\PROGRAM FILES (X86)\WINDOWS KITS\8.0\INCLUDE\SHARED\KTMTYPES.H
C:\PROGRAM FILES (X86)\WINDOWS KITS\8.0\INCLUDE\UM\WINBASE.H
C:\PROGRAM FILES (X86)\WINDOWS KITS\8.0\INCLUDE\SHARED\APISETCCONV.H
C:\PROGRAM FILES (X86)\WINDOWS KITS\8.0\INCLUDE\UM\MINWINBASE.H
C:\PROGRAM FILES (X86)\WINDOWS KITS\8.0\INCLUDE\UM\PROCESSENV.H
C:\PROGRAM FILES (X86)\WINDOWS KITS\8.0\INCLUDE\UM\FILEAPI.H
C:\PROGRAM FILES (X86)\WINDOWS KITS\8.0\INCLUDE\UM\DEBUGAPI.H
C:\PROGRAM FILES (X86)\WINDOWS KITS\8.0\INCLUDE\UM\UTILAPISET.H
C:\PROGRAM FILES (X86)\WINDOWS KITS\8.0\INCLUDE\UM\HANDLEAPI.H
C:\PROGRAM FILES (X86)\WINDOWS KITS\8.0\INCLUDE\UM\ERRHANDLINGAPI.H
C:\PROGRAM FILES (X86)\WINDOWS KITS\8.0\INCLUDE\UM\FIBERSAPI.H
C:\PROGRAM FILES (X86)\WINDOWS KITS\8.0\INCLUDE\UM\NAMEDPIPEAPI.H
C:\PROGRAM FILES (X86)\WINDOWS KITS\8.0\INCLUDE\UM\PROFILEAPI.H
C:\PROGRAM FILES (X86)\WINDOWS KITS\8.0\INCLUDE\UM\HEAPAPI.H
C:\PROGRAM FILES (X86)\WINDOWS KITS\8.0\INCLUDE\UM\IOAPISET.H
C:\PROGRAM FILES (X86)\WINDOWS KITS\8.0\INCLUDE\UM\SYNCHAPI.H
C:\PROGRAM FILES (X86)\WINDOWS KITS\8.0\INCLUDE\UM\INTERLOCKEDAPI.H
C:\PROGRAM FILES (X86)\WINDOWS KITS\8.0\INCLUDE\UM\PROCESSTHREADSAPI.H
C:\PROGRAM FILES (X86)\WINDOWS KITS\8.0\INCLUDE\UM\SYSINFOAPI.H
C:\PROGRAM FILES (X86)\WINDOWS KITS\8.0\INCLUDE\UM\MEMORYAPI.H
C:\PROGRAM FILES (X86)\WINDOWS KITS\8.0\INCLUDE\UM\THREADPOOLLEGACYAPISET.H
C:\PROGRAM FILES (X86)\WINDOWS KITS\8.0\INCLUDE\UM\THREADPOOLAPISET.H
C:\PROGRAM FILES (X86)\WINDOWS KITS\8.0\INCLUDE\UM\BEMAPISET.H
C:\PROGRAM FILES (X86)\WINDOWS KITS\8.0\INCLUDE\UM\JOBAPI.H
C:\PROGRAM FILES (X86)\WINDOWS KITS\8.0\INCLUDE\UM\WOW64APISET.H
C:\PROGRAM FILES (X86)\WINDOWS KITS\8.0\INCLUDE\UM\LIBLOADERAPI.H
C:\PROGRAM FILES (X86)\WINDOWS KITS\8.0\INCLUDE\UM\SECURITYBASEAPI.H
C:\PROGRAM FILES (X86)\WINDOWS KITS\8.0\INCLUDE\UM\NAMESPACEAPI.H
C:\PROGRAM FILES (X86)\WINDOWS KITS\8.0\INCLUDE\UM\SYSTEMTOPOLOGYAPI.H
C:\PROGRAM FILES (X86)\WINDOWS KITS\8.0\INCLUDE\UM\PROCESSTOPOLOGYAPI.H
C:\PROGRAM FILES (X86)\WINDOWS KITS\8.0\INCLUDE\UM\SECURITYAPPCONTAINER.H
C:\PROGRAM FILES (X86)\WINDOWS KITS\8.0\INCLUDE\UM\REALTIMEAPISET.H
C:\PROGRAM FILES (X86)\WINDOWS KITS\8.0\INCLUDE\SHARED\WINERROR.H
C:\PROGRAM FILES (X86)\WINDOWS KITS\8.0\INCLUDE\UM\TIMEZONEAPI.H
C:\PROGRAM FILES (X86)\WINDOWS KITS\8.0\INCLUDE\UM\WINGDI.H
C:\PROGRAM FILES (X86)\WINDOWS KITS\8.0\INCLUDE\SHARED\PSHPACK1.H
C:\PROGRAM FILES (X86)\WINDOWS KITS\8.0\INCLUDE\UM\WINUSER.H
C:\PROGRAM FILES (X86)\WINDOWS KITS\8.0\INCLUDE\SHARED\TVOUT.H
C:\PROGRAM FILES (X86)\WINDOWS KITS\8.0\INCLUDE\UM\WINNLS.H
C:\PROGRAM FILES (X86)\WINDOWS KITS\8.0\INCLUDE\UM\DATETIMEAPI.H
C:\PROGRAM FILES (X86)\WINDOWS KITS\8.0\INCLUDE\UM\STRINGAPISET.H
C:\PROGRAM FILES (X86)\WINDOWS KITS\8.0\INCLUDE\UM\WINCON.H
C:\PROGRAM FILES (X86)\WINDOWS KITS\8.0\INCLUDE\UM\CONSOLEAPI.H
C:\PROGRAM FILES (X86)\WINDOWS KITS\8.0\INCLUDE\UM\WINVER.H
C:\PROGRAM FILES (X86)\WINDOWS KITS\8.0\INCLUDE\UM\VERRSRC.H
C:\PROGRAM FILES (X86)\WINDOWS KITS\8.0\INCLUDE\UM\WINREG.H
C:\PROGRAM FILES (X86)\WINDOWS KITS\8.0\INCLUDE\UM\REASON.H
C:\PROGRAM FILES (X86)\WINDOWS KITS\8.0\INCLUDE\UM\WINNETWK.H
C:\PROGRAM FILES (X86)\WINDOWS KITS\8.0\INCLUDE\SHARED\WNNC.H
C:\PROGRAM FILES (X86)\WINDOWS KITS\8.0\INCLUDE\SHARED\STRALIGN.H
C:\PROGRAM FILES (X86)\WINDOWS KITS\8.0\INCLUDE\UM\WINSVC.H
C:\PROGRAM FILES (X86)\WINDOWS KITS\8.0\INCLUDE\UM\MCX.H
C:\PROGRAM FILES (X86)\WINDOWS KITS\8.0\INCLUDE\UM\IMM.H
C:\PROGRAM FILES (X86)\WINDOWS KITS\8.0\INCLUDE\UM\IME_CMODES.H
C:\DEVELOPER\OPENFRAMEWORKS\OF_V0.8.4_VS_RELEASE\LIBS\GLEW\INCLUDE\GL\GLEW.H
C:\PROGRAM FILES (X86)\WINDOWS KITS\8.0\INCLUDE\UM\GL\GLU.H
C:\PROGRAM FILES (X86)\WINDOWS KITS\8.0\INCLUDE\UM\GL\GL.H
C:\DEVELOPER\OPENFRAMEWORKS\OF_V0.8.4_VS_RELEASE\LIBS\GLEW\INCLUDE\GL\WGLEW.H
C:\DEVELOPER\OPENFRAMEWORKS\OF_V0.8.4_VS_RELEASE\LIBS\GLU\INCLUDE\GLU.H
C:\PROGRAM FILES (X86)\MICROSOFT VISUAL STUDIO 11.0\VC\INCLUDE\FUNCTIONAL
C:\PROGRAM FILES (X86)\MICROSOFT VISUAL STUDIO 11.0\VC\INCLUDE\XFUNCTIONAL
C:\PROGRAM FILES (X86)\MICROSOFT VISUAL STUDIO 11.0\VC\INCLUDE\CSTDLIB
C:\PROGRAM FILES (X86)\MICROSOFT VISUAL STUDIO 11.0\VC\INCLUDE\YVALS.H
C:\PROGRAM FILES (X86)\MICROSOFT VISUAL STUDIO 11.0\VC\INCLUDE\XKEYCHECK.H
C:\PROGRAM FILES (X86)\MICROSOFT VISUAL STUDIO 11.0\VC\INCLUDE\USE_ANSI.H
C:\PROGRAM FILES (X86)\MICROSOFT VISUAL STUDIO 11.0\VC\INCLUDE\STDLIB.H
C:\PROGRAM FILES (X86)\MICROSOFT VISUAL STUDIO 11.0\VC\INCLUDE\LIMITS.H
C:\PROGRAM FILES (X86)\MICROSOFT VISUAL STUDIO 11.0\VC\INCLUDE\XSTRING
C:\PROGRAM FILES (X86)\MICROSOFT VISUAL STUDIO 11.0\VC\INCLUDE\XMEMORY0
C:\PROGRAM FILES (X86)\MICROSOFT VISUAL STUDIO 11.0\VC\INCLUDE\LIMITS
C:\PROGRAM FILES (X86)\MICROSOFT VISUAL STUDIO 11.0\VC\INCLUDE\YMATH.H
C:\PROGRAM FILES (X86)\MICROSOFT VISUAL STUDIO 11.0\VC\INCLUDE\CFLOAT
C:\PROGRAM FILES (X86)\MICROSOFT VISUAL STUDIO 11.0\VC\INCLUDE\FLOAT.H
C:\PROGRAM FILES (X86)\MICROSOFT VISUAL STUDIO 11.0\VC\INCLUDE\CRTWRN.H
C:\PROGRAM FILES (X86)\MICROSOFT VISUAL STUDIO 11.0\VC\INCLUDE\CLIMITS
C:\PROGRAM FILES (X86)\MICROSOFT VISUAL STUDIO 11.0\VC\INCLUDE\CMATH
C:\PROGRAM FILES (X86)\MICROSOFT VISUAL STUDIO 11.0\VC\INCLUDE\MATH.H
C:\PROGRAM FILES (X86)\MICROSOFT VISUAL STUDIO 11.0\VC\INCLUDE\XTGMATH.H
C:\PROGRAM FILES (X86)\MICROSOFT VISUAL STUDIO 11.0\VC\INCLUDE\XTR1COMMON
C:\PROGRAM FILES (X86)\MICROSOFT VISUAL STUDIO 11.0\VC\INCLUDE\CWCHAR
C:\PROGRAM FILES (X86)\MICROSOFT VISUAL STUDIO 11.0\VC\INCLUDE\WCHAR.H
C:\PROGRAM FILES (X86)\MICROSOFT VISUAL STUDIO 11.0\VC\INCLUDE\SWPRINTF.INL
C:\PROGRAM FILES (X86)\MICROSOFT VISUAL STUDIO 11.0\VC\INCLUDE\WTIME.INL
C:\PROGRAM FILES (X86)\MICROSOFT VISUAL STUDIO 11.0\VC\INCLUDE\XSTDDEF
C:\PROGRAM FILES (X86)\MICROSOFT VISUAL STUDIO 11.0\VC\INCLUDE\CSTDDEF
C:\PROGRAM FILES (X86)\MICROSOFT VISUAL STUDIO 11.0\VC\INCLUDE\STDDEF.H
C:\PROGRAM FILES (X86)\MICROSOFT VISUAL STUDIO 11.0\VC\INCLUDE\NEW
C:\PROGRAM FILES (X86)\MICROSOFT VISUAL STUDIO 11.0\VC\INCLUDE\EXCEPTION
C:\PROGRAM FILES (X86)\MICROSOFT VISUAL STUDIO 11.0\VC\INCLUDE\EH.H
C:\PROGRAM FILES (X86)\MICROSOFT VISUAL STUDIO 11.0\VC\INCLUDE\MALLOC.H
C:\PROGRAM FILES (X86)\MICROSOFT VISUAL STUDIO 11.0\VC\INCLUDE\XUTILITY
C:\PROGRAM FILES (X86)\MICROSOFT VISUAL STUDIO 11.0\VC\INCLUDE\UTILITY
C:\PROGRAM FILES (X86)\MICROSOFT VISUAL STUDIO 11.0\VC\INCLUDE\IOSFWD
C:\PROGRAM FILES (X86)\MICROSOFT VISUAL STUDIO 11.0\VC\INCLUDE\CSTDIO
C:\PROGRAM FILES (X86)\MICROSOFT VISUAL STUDIO 11.0\VC\INCLUDE\STDIO.H
C:\PROGRAM FILES (X86)\MICROSOFT VISUAL STUDIO 11.0\VC\INCLUDE\CSTRING
C:\PROGRAM FILES (X86)\MICROSOFT VISUAL STUDIO 11.0\VC\INCLUDE\CRTDBG.H
C:\PROGRAM FILES (X86)\MICROSOFT VISUAL STUDIO 11.0\VC\INCLUDE\TYPE_TRAITS
C:\PROGRAM FILES (X86)\MICROSOFT VISUAL STUDIO 11.0\VC\INCLUDE\XREFWRAP
C:\PROGRAM FILES (X86)\MICROSOFT VISUAL STUDIO 11.0\VC\INCLUDE\XATOMIC0.H
C:\PROGRAM FILES (X86)\MICROSOFT VISUAL STUDIO 11.0\VC\INCLUDE\INTRIN.H
C:\PROGRAM FILES (X86)\MICROSOFT VISUAL STUDIO 11.0\VC\INCLUDE\SETJMP.H
C:\PROGRAM FILES (X86)\MICROSOFT VISUAL STUDIO 11.0\VC\INCLUDE\IMMINTRIN.H
C:\PROGRAM FILES (X86)\MICROSOFT VISUAL STUDIO 11.0\VC\INCLUDE\WMMINTRIN.H
C:\PROGRAM FILES (X86)\MICROSOFT VISUAL STUDIO 11.0\VC\INCLUDE\NMMINTRIN.H
C:\PROGRAM FILES (X86)\MICROSOFT VISUAL STUDIO 11.0\VC\INCLUDE\SMMINTRIN.H
C:\PROGRAM FILES (X86)\MICROSOFT VISUAL STUDIO 11.0\VC\INCLUDE\TMMINTRIN.H
C:\PROGRAM FILES (X86)\MICROSOFT VISUAL STUDIO 11.0\VC\INCLUDE\PMMINTRIN.H
C:\PROGRAM FILES (X86)\MICROSOFT VISUAL STUDIO 11.0\VC\INCLUDE\EMMINTRIN.H
C:\PROGRAM FILES (X86)\MICROSOFT VISUAL STUDIO 11.0\VC\INCLUDE\XMMINTRIN.H
C:\PROGRAM FILES (X86)\MICROSOFT VISUAL STUDIO 11.0\VC\INCLUDE\MMINTRIN.H
C:\PROGRAM FILES (X86)\MICROSOFT VISUAL STUDIO 11.0\VC\INCLUDE\AMMINTRIN.H
C:\PROGRAM FILES (X86)\MICROSOFT VISUAL STUDIO 11.0\VC\INCLUDE\MM3DNOW.H
C:\PROGRAM FILES (X86)\MICROSOFT VISUAL STUDIO 11.0\VC\INCLUDE\TYPEINFO
C:\PROGRAM FILES (X86)\MICROSOFT VISUAL STUDIO 11.0\VC\INCLUDE\TUPLE
C:\DEVELOPER\OPENFRAMEWORKS\OF_V0.8.4_VS_RELEASE\LIBS\TESS2\INCLUDE\TESSELATOR.H
C:\PROGRAM FILES (X86)\MICROSOFT VISUAL STUDIO 11.0\VC\INCLUDE\CSTDARG
C:\PROGRAM FILES (X86)\MICROSOFT VISUAL STUDIO 11.0\VC\INCLUDE\CTIME
C:\PROGRAM FILES (X86)\MICROSOFT VISUAL STUDIO 11.0\VC\INCLUDE\TIME.H
C:\PROGRAM FILES (X86)\MICROSOFT VISUAL STUDIO 11.0\VC\INCLUDE\TIME.INL
C:\PROGRAM FILES (X86)\MICROSOFT VISUAL STUDIO 11.0\VC\INCLUDE\STRING
C:\PROGRAM FILES (X86)\MICROSOFT VISUAL STUDIO 11.0\VC\INCLUDE\ITERATOR
C:\PROGRAM FILES (X86)\MICROSOFT VISUAL STUDIO 11.0\VC\INCLUDE\ISTREAM
C:\PROGRAM FILES (X86)\MICROSOFT VISUAL STUDIO 11.0\VC\INCLUDE\OSTREAM
C:\PROGRAM FILES (X86)\MICROSOFT VISUAL STUDIO 11.0\VC\INCLUDE\IOS
C:\PROGRAM FILES (X86)\MICROSOFT VISUAL STUDIO 11.0\VC\INCLUDE\XLOCNUM
C:\PROGRAM FILES (X86)\MICROSOFT VISUAL STUDIO 11.0\VC\INCLUDE\STREAMBUF
C:\PROGRAM FILES (X86)\MICROSOFT VISUAL STUDIO 11.0\VC\INCLUDE\XIOSBASE
C:\PROGRAM FILES (X86)\MICROSOFT VISUAL STUDIO 11.0\VC\INCLUDE\XLOCALE
C:\PROGRAM FILES (X86)\MICROSOFT VISUAL STUDIO 11.0\VC\INCLUDE\STDEXCEPT
C:\PROGRAM FILES (X86)\MICROSOFT VISUAL STUDIO 11.0\VC\INCLUDE\XLOCINFO
C:\PROGRAM FILES (X86)\MICROSOFT VISUAL STUDIO 11.0\VC\INCLUDE\XLOCINFO.H
C:\PROGRAM FILES (X86)\MICROSOFT VISUAL STUDIO 11.0\VC\INCLUDE\LOCALE.H
C:\PROGRAM FILES (X86)\MICROSOFT VISUAL STUDIO 11.0\VC\INCLUDE\XDEBUG
C:\PROGRAM FILES (X86)\MICROSOFT VISUAL STUDIO 11.0\VC\INCLUDE\XMEMORY
C:\PROGRAM FILES (X86)\MICROSOFT VISUAL STUDIO 11.0\VC\INCLUDE\XFACET
C:\PROGRAM FILES (X86)\MICROSOFT VISUAL STUDIO 11.0\VC\INCLUDE\SYSTEM_ERROR
C:\PROGRAM FILES (X86)\MICROSOFT VISUAL STUDIO 11.0\VC\INCLUDE\CERRNO
C:\PROGRAM FILES (X86)\MICROSOFT VISUAL STUDIO 11.0\VC\INCLUDE\ERRNO.H
C:\PROGRAM FILES (X86)\MICROSOFT VISUAL STUDIO 11.0\VC\INCLUDE\SHARE.H
C:\PROGRAM FILES (X86)\MICROSOFT VISUAL STUDIO 11.0\VC\INCLUDE\IOSTREAM
C:\PROGRAM FILES (X86)\MICROSOFT VISUAL STUDIO 11.0\VC\INCLUDE\VECTOR
C:\PROGRAM FILES (X86)\MICROSOFT VISUAL STUDIO 11.0\VC\INCLUDE\SSTREAM
C:\PROGRAM FILES (X86)\MICROSOFT VISUAL STUDIO 11.0\VC\INCLUDE\IOMANIP
C:\PROGRAM FILES (X86)\MICROSOFT VISUAL STUDIO 11.0\VC\INCLUDE\XLOCMON
C:\PROGRAM FILES (X86)\MICROSOFT VISUAL STUDIO 11.0\VC\INCLUDE\XLOCTIME
C:\PROGRAM FILES (X86)\MICROSOFT VISUAL STUDIO 11.0\VC\INCLUDE\FSTREAM
C:\PROGRAM FILES (X86)\MICROSOFT VISUAL STUDIO 11.0\VC\INCLUDE\ALGORITHM
C:\DEVELOPER\OPENFRAMEWORKS\OF_V0.8.4_VS_RELEASE\LIBS\OPENFRAMEWORKS\UTILS\OFFILEUTILS.H
C:\DEVELOPER\OPENFRAMEWORKS\OF_V0.8.4_VS_RELEASE\LIBS\POCO\INCLUDE\POCO\FILE.H
C:\DEVELOPER\OPENFRAMEWORKS\OF_V0.8.4_VS_RELEASE\LIBS\POCO\INCLUDE\POCO\FOUNDATION.H
C:\DEVELOPER\OPENFRAMEWORKS\OF_V0.8.4_VS_RELEASE\LIBS\POCO\INCLUDE\POCO\CONFIG.H
C:\DEVELOPER\OPENFRAMEWORKS\OF_V0.8.4_VS_RELEASE\LIBS\POCO\INCLUDE\POCO\PLATFORM.H
C:\DEVELOPER\OPENFRAMEWORKS\OF_V0.8.4_VS_RELEASE\LIBS\POCO\INCLUDE\POCO\PLATFORM_WIN32.H
C:\DEVELOPER\OPENFRAMEWORKS\OF_V0.8.4_VS_RELEASE\LIBS\POCO\INCLUDE\POCO\BUGCHECK.H
C:\DEVELOPER\OPENFRAMEWORKS\OF_V0.8.4_VS_RELEASE\LIBS\POCO\INCLUDE\POCO\TYPES.H
C:\DEVELOPER\OPENFRAMEWORKS\OF_V0.8.4_VS_RELEASE\LIBS\POCO\INCLUDE\POCO\TIMESTAMP.H
C:\DEVELOPER\OPENFRAMEWORKS\OF_V0.8.4_VS_RELEASE\LIBS\POCO\INCLUDE\POCO\FILE_WIN32U.H
C:\DEVELOPER\OPENFRAMEWORKS\OF_V0.8.4_VS_RELEASE\LIBS\OPENFRAMEWORKS\UTILS\OFLOG.H
C:\DEVELOPER\OPENFRAMEWORKS\OF_V0.8.4_VS_RELEASE\LIBS\OPENFRAMEWORKS\TYPES\OFTYPES.H
C:\DEVELOPER\OPENFRAMEWORKS\OF_V0.8.4_VS_RELEASE\LIBS\OPENFRAMEWORKS\TYPES\OFCOLOR.H
C:\DEVELOPER\OPENFRAMEWORKS\OF_V0.8.4_VS_RELEASE\LIBS\OPENFRAMEWORKS\MATH\OFMATH.H
C:\DEVELOPER\OPENFRAMEWORKS\OF_V0.8.4_VS_RELEASE\LIBS\OPENFRAMEWORKS\TYPES\OFPOINT.H
C:\DEVELOPER\OPENFRAMEWORKS\OF_V0.8.4_VS_RELEASE\LIBS\OPENFRAMEWORKS\MATH\OFVEC3F.H
C:\DEVELOPER\OPENFRAMEWORKS\OF_V0.8.4_VS_RELEASE\LIBS\OPENFRAMEWORKS\MATH\OFVEC2F.H
C:\DEVELOPER\OPENFRAMEWORKS\OF_V0.8.4_VS_RELEASE\LIBS\OPENFRAMEWORKS\MATH\OFVEC4F.H
C:\PROGRAM FILES (X86)\MICROSOFT VISUAL STUDIO 11.0\VC\INCLUDE\MEMORY
C:\DEVELOPER\OPENFRAMEWORKS\OF_V0.8.4_VS_RELEASE\LIBS\POCO\INCLUDE\POCO\MUTEX.H
C:\DEVELOPER\OPENFRAMEWORKS\OF_V0.8.4_VS_RELEASE\LIBS\POCO\INCLUDE\POCO\EXCEPTION.H
C:\DEVELOPER\OPENFRAMEWORKS\OF_V0.8.4_VS_RELEASE\LIBS\POCO\INCLUDE\POCO\SCOPEDLOCK.H
C:\DEVELOPER\OPENFRAMEWORKS\OF_V0.8.4_VS_RELEASE\LIBS\POCO\INCLUDE\POCO\MUTEX_WIN32.H
C:\DEVELOPER\OPENFRAMEWORKS\OF_V0.8.4_VS_RELEASE\LIBS\POCO\INCLUDE\POCO\UNWINDOWS.H
C:\DEVELOPER\OPENFRAMEWORKS\OF_V0.8.4_VS_RELEASE\LIBS\OPENFRAMEWORKS\UTILS\OFSYSTEMUTILS.H
C:\DEVELOPER\OPENFRAMEWORKS\OF_V0.8.4_VS_RELEASE\LIBS\OPENFRAMEWORKS\UTILS\OFTHREAD.H
C:\DEVELOPER\OPENFRAMEWORKS\OF_V0.8.4_VS_RELEASE\LIBS\POCO\INCLUDE\POCO\ATOMICCOUNTER.H
C:\DEVELOPER\OPENFRAMEWORKS\OF_V0.8.4_VS_RELEASE\LIBS\POCO\INCLUDE\POCO\THREAD.H
C:\DEVELOPER\OPENFRAMEWORKS\OF_V0.8.4_VS_RELEASE\LIBS\POCO\INCLUDE\POCO\THREAD_WIN32.H
C:\DEVELOPER\OPENFRAMEWORKS\OF_V0.8.4_VS_RELEASE\LIBS\POCO\INCLUDE\POCO\RUNNABLE.H
C:\DEVELOPER\OPENFRAMEWORKS\OF_V0.8.4_VS_RELEASE\LIBS\OPENFRAMEWORKS\UTILS\OFURLFILELOADER.H
C:\PROGRAM FILES (X86)\MICROSOFT VISUAL STUDIO 11.0\VC\INCLUDE\DEQUE
C:\PROGRAM FILES (X86)\MICROSOFT VISUAL STUDIO 11.0\VC\INCLUDE\QUEUE
C:\DEVELOPER\OPENFRAMEWORKS\OF_V0.8.4_VS_RELEASE\LIBS\OPENFRAMEWORKS\EVENTS\OFEVENTS.H
C:\DEVELOPER\OPENFRAMEWORKS\OF_V0.8.4_VS_RELEASE\LIBS\OPENFRAMEWORKS\EVENTS\OFEVENTUTILS.H
C:\DEVELOPER\OPENFRAMEWORKS\OF_V0.8.4_VS_RELEASE\LIBS\POCO\INCLUDE\POCO\PRIORITYEVENT.H
C:\DEVELOPER\OPENFRAMEWORKS\OF_V0.8.4_VS_RELEASE\LIBS\POCO\INCLUDE\POCO\ABSTRACTEVENT.H
C:\DEVELOPER\OPENFRAMEWORKS\OF_V0.8.4_VS_RELEASE\LIBS\POCO\INCLUDE\POCO\SINGLETONHOLDER.H
C:\DEVELOPER\OPENFRAMEWORKS\OF_V0.8.4_VS_RELEASE\LIBS\POCO\INCLUDE\POCO\SHAREDPTR.H
C:\DEVELOPER\OPENFRAMEWORKS\OF_V0.8.4_VS_RELEASE\LIBS\POCO\INCLUDE\POCO\ACTIVERESULT.H
C:\DEVELOPER\OPENFRAMEWORKS\OF_V0.8.4_VS_RELEASE\LIBS\POCO\INCLUDE\POCO\EVENT.H
C:\DEVELOPER\OPENFRAMEWORKS\OF_V0.8.4_VS_RELEASE\LIBS\POCO\INCLUDE\POCO\EVENT_WIN32.H
C:\DEVELOPER\OPENFRAMEWORKS\OF_V0.8.4_VS_RELEASE\LIBS\POCO\INCLUDE\POCO\REFCOUNTEDOBJECT.H
C:\DEVELOPER\OPENFRAMEWORKS\OF_V0.8.4_VS_RELEASE\LIBS\POCO\INCLUDE\POCO\ACTIVEMETHOD.H
C:\DEVELOPER\OPENFRAMEWORKS\OF_V0.8.4_VS_RELEASE\LIBS\POCO\INCLUDE\POCO\ACTIVERUNNABLE.H
C:\DEVELOPER\OPENFRAMEWORKS\OF_V0.8.4_VS_RELEASE\LIBS\POCO\INCLUDE\POCO\AUTOPTR.H
C:\DEVELOPER\OPENFRAMEWORKS\OF_V0.8.4_VS_RELEASE\LIBS\POCO\INCLUDE\POCO\ACTIVESTARTER.H
C:\DEVELOPER\OPENFRAMEWORKS\OF_V0.8.4_VS_RELEASE\LIBS\POCO\INCLUDE\POCO\THREADPOOL.H
C:\DEVELOPER\OPENFRAMEWORKS\OF_V0.8.4_VS_RELEASE\LIBS\POCO\INCLUDE\POCO\PRIORITYSTRATEGY.H
C:\DEVELOPER\OPENFRAMEWORKS\OF_V0.8.4_VS_RELEASE\LIBS\POCO\INCLUDE\POCO\NOTIFICATIONSTRATEGY.H
C:\DEVELOPER\OPENFRAMEWORKS\OF_V0.8.4_VS_RELEASE\LIBS\POCO\INCLUDE\POCO\ABSTRACTPRIORITYDELEGATE.H
C:\DEVELOPER\OPENFRAMEWORKS\OF_V0.8.4_VS_RELEASE\LIBS\POCO\INCLUDE\POCO\ABSTRACTDELEGATE.H
C:\DEVELOPER\OPENFRAMEWORKS\OF_V0.8.4_VS_RELEASE\LIBS\POCO\INCLUDE\POCO\PRIORITYDELEGATE.H
C:\DEVELOPER\OPENFRAMEWORKS\OF_V0.8.4_VS_RELEASE\LIBS\POCO\INCLUDE\POCO\PRIORITYEXPIRE.H
C:\DEVELOPER\OPENFRAMEWORKS\OF_V0.8.4_VS_RELEASE\LIBS\POCO\INCLUDE\POCO\FUNCTIONPRIORITYDELEGATE.H
C:\DEVELOPER\OPENFRAMEWORKS\OF_V0.8.4_VS_RELEASE\LIBS\OPENFRAMEWORKS\EVENTS\OFDELEGATE.H
C:\DEVELOPER\OPENFRAMEWORKS\OF_V0.8.4_VS_RELEASE\LIBS\POCO\INCLUDE\POCO\CONDITION.H
C:\DEVELOPER\OPENFRAMEWORKS\OF_V0.8.4_VS_RELEASE\LIBS\POCO\INCLUDE\POCO\SCOPEDUNLOCK.H
C:\DEVELOPER\OPENFRAMEWORKS\OF_V0.8.4_VS_RELEASE\LIBS\OPENFRAMEWORKS\UTILS\OFUTILS.H
C:\PROGRAM FILES (X86)\MICROSOFT VISUAL STUDIO 11.0\VC\INCLUDE\BITSET
C:\PROGRAM FILES (X86)\WINDOWS KITS\8.0\INCLUDE\UM\SHELLAPI.H
C:\DEVELOPER\OPENFRAMEWORKS\OF_V0.8.4_VS_RELEASE\LIBS\POCO\INCLUDE\POCO\PATH.H
C:\DEVELOPER\OPENFRAMEWORKS\OF_V0.8.4_VS_RELEASE\LIBS\OPENFRAMEWORKS\TYPES\OFBASETYPES.H
C:\DEVELOPER\OPENFRAMEWORKS\OF_V0.8.4_VS_RELEASE\LIBS\OPENFRAMEWORKS\TYPES\OFRECTANGLE.H
C:\DEVELOPER\OPENFRAMEWORKS\OF_V0.8.4_VS_RELEASE\LIBS\OPENFRAMEWORKS\3D\OFMESH.H
C:\DEVELOPER\OPENFRAMEWORKS\OF_V0.8.4_VS_RELEASE\LIBS\OPENFRAMEWORKS\GL\OFGLUTILS.H
C:\DEVELOPER\OPENFRAMEWORKS\OF_V0.8.4_VS_RELEASE\LIBS\OPENFRAMEWORKS\GRAPHICS\OFPIXELS.H
C:\DEVELOPER\OPENFRAMEWORKS\OF_V0.8.4_VS_RELEASE\LIBS\OPENFRAMEWORKS\MATH\OFMATRIX4X4.H
C:\DEVELOPER\OPENFRAMEWORKS\OF_V0.8.4_VS_RELEASE\LIBS\OPENFRAMEWORKS\MATH\OFQUATERNION.H
C:\DEVELOPER\OPENFRAMEWORKS\OF_V0.8.4_VS_RELEASE\LIBS\OPENFRAMEWORKS\UTILS\OFXML.H
C:\PROGRAM FILES (X86)\MICROSOFT VISUAL STUDIO 11.0\VC\INCLUDE\NUMERIC
C:\DEVELOPER\OPENFRAMEWORKS\OF_V0.8.4_VS_RELEASE\LIBS\POCO\INCLUDE\POCO\DOM\DOCUMENT.H
C:\DEVELOPER\OPENFRAMEWORKS\OF_V0.8.4_VS_RELEASE\LIBS\POCO\INCLUDE\POCO\XML\XML.H
C:\DEVELOPER\OPENFRAMEWORKS\OF_V0.8.4_VS_RELEASE\LIBS\POCO\INCLUDE\POCO\DOM\ABSTRACTCONTAINERNODE.H
C:\DEVELOPER\OPENFRAMEWORKS\OF_V0.8.4_VS_RELEASE\LIBS\POCO\INCLUDE\POCO\DOM\ABSTRACTNODE.H
C:\DEVELOPER\OPENFRAMEWORKS\OF_V0.8.4_VS_RELEASE\LIBS\POCO\INCLUDE\POCO\DOM\NODE.H
C:\DEVELOPER\OPENFRAMEWORKS\OF_V0.8.4_VS_RELEASE\LIBS\POCO\INCLUDE\POCO\DOM\EVENTTARGET.H
C:\DEVELOPER\OPENFRAMEWORKS\OF_V0.8.4_VS_RELEASE\LIBS\POCO\INCLUDE\POCO\DOM\DOMOBJECT.H
C:\DEVELOPER\OPENFRAMEWORKS\OF_V0.8.4_VS_RELEASE\LIBS\POCO\INCLUDE\POCO\XML\XMLSTRING.H
C:\DEVELOPER\OPENFRAMEWORKS\OF_V0.8.4_VS_RELEASE\LIBS\POCO\INCLUDE\POCO\SAX\NAMESPACESUPPORT.H
C:\PROGRAM FILES (X86)\MICROSOFT VISUAL STUDIO 11.0\VC\INCLUDE\SET
C:\PROGRAM FILES (X86)\MICROSOFT VISUAL STUDIO 11.0\VC\INCLUDE\XTREE
C:\PROGRAM FILES (X86)\MICROSOFT VISUAL STUDIO 11.0\VC\INCLUDE\MAP
C:\DEVELOPER\OPENFRAMEWORKS\OF_V0.8.4_VS_RELEASE\LIBS\POCO\INCLUDE\POCO\DOM\MUTATIONEVENT.H
C:\DEVELOPER\OPENFRAMEWORKS\OF_V0.8.4_VS_RELEASE\LIBS\POCO\INCLUDE\POCO\DOM\EVENT.H
C:\DEVELOPER\OPENFRAMEWORKS\OF_V0.8.4_VS_RELEASE\LIBS\POCO\INCLUDE\POCO\DOM\DOCUMENTEVENT.H
C:\DEVELOPER\OPENFRAMEWORKS\OF_V0.8.4_VS_RELEASE\LIBS\POCO\INCLUDE\POCO\DOM\ELEMENT.H
C:\DEVELOPER\OPENFRAMEWORKS\OF_V0.8.4_VS_RELEASE\LIBS\POCO\INCLUDE\POCO\XML\NAME.H
C:\DEVELOPER\OPENFRAMEWORKS\OF_V0.8.4_VS_RELEASE\LIBS\POCO\INCLUDE\POCO\XML\NAMEPOOL.H
C:\DEVELOPER\OPENFRAMEWORKS\OF_V0.8.4_VS_RELEASE\LIBS\POCO\INCLUDE\POCO\AUTORELEASEPOOL.H
C:\PROGRAM FILES (X86)\MICROSOFT VISUAL STUDIO 11.0\VC\INCLUDE\LIST
C:\DEVELOPER\OPENFRAMEWORKS\OF_V0.8.4_VS_RELEASE\LIBS\POCO\INCLUDE\POCO\DOM\DOCUMENTFRAGMENT.H
C:\DEVELOPER\OPENFRAMEWORKS\OF_V0.8.4_VS_RELEASE\LIBS\POCO\INCLUDE\POCO\DOM\DOMPARSER.H
C:\DEVELOPER\OPENFRAMEWORKS\OF_V0.8.4_VS_RELEASE\LIBS\POCO\INCLUDE\POCO\SAX\SAXPARSER.H
C:\DEVELOPER\OPENFRAMEWORKS\OF_V0.8.4_VS_RELEASE\LIBS\POCO\INCLUDE\POCO\SAX\XMLREADER.H
C:\DEVELOPER\OPENFRAMEWORKS\OF_V0.8.4_VS_RELEASE\LIBS\POCO\INCLUDE\POCO\XML\PARSERENGINE.H
C:\DEVELOPER\OPENFRAMEWORKS\OF_V0.8.4_VS_RELEASE\LIBS\POCO\INCLUDE\POCO\XML\EXPAT.H
C:\DEVELOPER\OPENFRAMEWORKS\OF_V0.8.4_VS_RELEASE\LIBS\POCO\INCLUDE\POCO\XML\EXPAT_EXTERNAL.H
C:\DEVELOPER\OPENFRAMEWORKS\OF_V0.8.4_VS_RELEASE\LIBS\POCO\INCLUDE\POCO\XML\XMLSTREAM.H
C:\DEVELOPER\OPENFRAMEWORKS\OF_V0.8.4_VS_RELEASE\LIBS\POCO\INCLUDE\POCO\SAX\LOCATOR.H
C:\DEVELOPER\OPENFRAMEWORKS\OF_V0.8.4_VS_RELEASE\LIBS\POCO\INCLUDE\POCO\TEXTENCODING.H
C:\DEVELOPER\OPENFRAMEWORKS\OF_V0.8.4_VS_RELEASE\LIBS\POCO\INCLUDE\POCO\DOM\DOMEXCEPTION.H
C:\DEVELOPER\OPENFRAMEWORKS\OF_V0.8.4_VS_RELEASE\LIBS\POCO\INCLUDE\POCO\XML\XMLEXCEPTION.H
C:\DEVELOPER\OPENFRAMEWORKS\OF_V0.8.4_VS_RELEASE\LIBS\POCO\INCLUDE\POCO\SAX\SAXEXCEPTION.H
C:\DEVELOPER\OPENFRAMEWORKS\OF_V0.8.4_VS_RELEASE\LIBS\POCO\INCLUDE\POCO\XML\XMLWRITER.H
C:\DEVELOPER\OPENFRAMEWORKS\OF_V0.8.4_VS_RELEASE\LIBS\POCO\INCLUDE\POCO\SAX\CONTENTHANDLER.H
C:\DEVELOPER\OPENFRAMEWORKS\OF_V0.8.4_VS_RELEASE\LIBS\POCO\INCLUDE\POCO\SAX\LEXICALHANDLER.H
C:\DEVELOPER\OPENFRAMEWORKS\OF_V0.8.4_VS_RELEASE\LIBS\POCO\INCLUDE\POCO\SAX\DTDHANDLER.H
C:\DEVELOPER\OPENFRAMEWORKS\OF_V0.8.4_VS_RELEASE\LIBS\POCO\INCLUDE\POCO\STREAMCONVERTER.H
C:\DEVELOPER\OPENFRAMEWORKS\OF_V0.8.4_VS_RELEASE\LIBS\POCO\INCLUDE\POCO\UNBUFFEREDSTREAMBUF.H
C:\DEVELOPER\OPENFRAMEWORKS\OF_V0.8.4_VS_RELEASE\LIBS\POCO\INCLUDE\POCO\STREAMUTIL.H
C:\DEVELOPER\OPENFRAMEWORKS\OF_V0.8.4_VS_RELEASE\LIBS\POCO\INCLUDE\POCO\DOM\DOMWRITER.H
C:\DEVELOPER\OPENFRAMEWORKS\OF_V0.8.4_VS_RELEASE\LIBS\POCO\INCLUDE\POCO\DOM\ATTR.H
C:\DEVELOPER\OPENFRAMEWORKS\OF_V0.8.4_VS_RELEASE\LIBS\POCO\INCLUDE\POCO\DOM\TEXT.H
C:\DEVELOPER\OPENFRAMEWORKS\OF_V0.8.4_VS_RELEASE\LIBS\POCO\INCLUDE\POCO\DOM\CHARACTERDATA.H
C:\DEVELOPER\OPENFRAMEWORKS\OF_V0.8.4_VS_RELEASE\LIBS\POCO\INCLUDE\POCO\DOM\NODEITERATOR.H
C:\DEVELOPER\OPENFRAMEWORKS\OF_V0.8.4_VS_RELEASE\LIBS\POCO\INCLUDE\POCO\DOM\NODEFILTER.H
C:\DEVELOPER\OPENFRAMEWORKS\OF_V0.8.4_VS_RELEASE\LIBS\POCO\INCLUDE\POCO\DOM\NAMEDNODEMAP.H
C:\DEVELOPER\OPENFRAMEWORKS\OF_V0.8.4_VS_RELEASE\LIBS\POCO\INCLUDE\POCO\DOM\CHILDNODESLIST.H
C:\DEVELOPER\OPENFRAMEWORKS\OF_V0.8.4_VS_RELEASE\LIBS\POCO\INCLUDE\POCO\DOM\NODELIST.H
C:\DEVELOPER\OPENFRAMEWORKS\OF_V0.8.4_VS_RELEASE\LIBS\OPENFRAMEWORKS\TYPES\OFPARAMETER.H
C:\DEVELOPER\OPENFRAMEWORKS\OF_V0.8.4_VS_RELEASE\LIBS\OPENFRAMEWORKS\TYPES\OFPARAMETERGROUP.H
C:\DEVELOPER\OPENFRAMEWORKS\OF_V0.8.4_VS_RELEASE\LIBS\POCO\INCLUDE\POCO\ANY.H
C:\DEVELOPER\OPENFRAMEWORKS\OF_V0.8.4_VS_RELEASE\LIBS\OPENFRAMEWORKS\MATH\OFVECTORMATH.H
C:\DEVELOPER\OPENFRAMEWORKS\OF_V0.8.4_VS_RELEASE\LIBS\OPENFRAMEWORKS\MATH\OFMATRIX3X3.H
C:\DEVELOPER\OPENFRAMEWORKS\OF_V0.8.4_VS_RELEASE\LIBS\OPENFRAMEWORKS\COMMUNICATION\OFSERIAL.H
C:\PROGRAM FILES (X86)\MICROSOFT VISUAL STUDIO 11.0\VC\INCLUDE\TCHAR.H
C:\PROGRAM FILES (X86)\WINDOWS KITS\8.0\INCLUDE\UM\SETUPAPI.H
C:\PROGRAM FILES (X86)\WINDOWS KITS\8.0\INCLUDE\UM\SPAPIDEF.H
C:\PROGRAM FILES (X86)\WINDOWS KITS\8.0\INCLUDE\UM\COMMCTRL.H
C:\PROGRAM FILES (X86)\WINDOWS KITS\8.0\INCLUDE\UM\PRSHT.H
C:\PROGRAM FILES (X86)\WINDOWS KITS\8.0\INCLUDE\SHARED\DEVPROPDEF.H
C:\PROGRAM FILES (X86)\WINDOWS KITS\8.0\INCLUDE\UM\REGSTR.H
C:\PROGRAM FILES (X86)\WINDOWS KITS\8.0\INCLUDE\UM\WINIOCTL.H
C:\DEVELOPER\OPENFRAMEWORKS\OF_V0.8.4_VS_RELEASE\LIBS\OPENFRAMEWORKS\COMMUNICATION\OFARDUINO.H
C:\DEVELOPER\OPENFRAMEWORKS\OF_V0.8.4_VS_RELEASE\LIBS\OPENFRAMEWORKS\GL\OFFBO.H
C:\DEVELOPER\OPENFRAMEWORKS\OF_V0.8.4_VS_RELEASE\LIBS\OPENFRAMEWORKS\GL\OFTEXTURE.H
C:\DEVELOPER\OPENFRAMEWORKS\OF_V0.8.4_VS_RELEASE\LIBS\OPENFRAMEWORKS\GL\OFVBOMESH.H
C:\DEVELOPER\OPENFRAMEWORKS\OF_V0.8.4_VS_RELEASE\LIBS\OPENFRAMEWORKS\GL\OFVBO.H
C:\DEVELOPER\OPENFRAMEWORKS\OF_V0.8.4_VS_RELEASE\LIBS\OPENFRAMEWORKS\GL\OFGLRENDERER.H
C:\DEVELOPER\OPENFRAMEWORKS\OF_V0.8.4_VS_RELEASE\LIBS\OPENFRAMEWORKS\GRAPHICS\OFPOLYLINE.H
C:\PROGRAM FILES (X86)\MICROSOFT VISUAL STUDIO 11.0\VC\INCLUDE\STACK
C:\DEVELOPER\OPENFRAMEWORKS\OF_V0.8.4_VS_RELEASE\LIBS\OPENFRAMEWORKS\GRAPHICS\OFGRAPHICS.H
C:\DEVELOPER\OPENFRAMEWORKS\OF_V0.8.4_VS_RELEASE\LIBS\OPENFRAMEWORKS\UTILS\OFMATRIXSTACK.H
C:\DEVELOPER\OPENFRAMEWORKS\OF_V0.8.4_VS_RELEASE\LIBS\OPENFRAMEWORKS\GL\OFLIGHT.H
C:\DEVELOPER\OPENFRAMEWORKS\OF_V0.8.4_VS_RELEASE\LIBS\OPENFRAMEWORKS\3D\OFNODE.H
C:\DEVELOPER\OPENFRAMEWORKS\OF_V0.8.4_VS_RELEASE\LIBS\OPENFRAMEWORKS\3D\OF3DUTILS.H
C:\DEVELOPER\OPENFRAMEWORKS\OF_V0.8.4_VS_RELEASE\LIBS\OPENFRAMEWORKS\GRAPHICS\OF3DGRAPHICS.H
C:\DEVELOPER\OPENFRAMEWORKS\OF_V0.8.4_VS_RELEASE\LIBS\OPENFRAMEWORKS\3D\OF3DPRIMITIVES.H
C:\DEVELOPER\OPENFRAMEWORKS\OF_V0.8.4_VS_RELEASE\LIBS\OPENFRAMEWORKS\GL\OFMATERIAL.H
C:\DEVELOPER\OPENFRAMEWORKS\OF_V0.8.4_VS_RELEASE\LIBS\OPENFRAMEWORKS\GL\OFSHADER.H
C:\DEVELOPER\OPENFRAMEWORKS\OF_V0.8.4_VS_RELEASE\LIBS\POCO\INCLUDE\POCO\REGULAREXPRESSION.H
C:\DEVELOPER\OPENFRAMEWORKS\OF_V0.8.4_VS_RELEASE\LIBS\OPENFRAMEWORKS\APP\OFAPPBASEWINDOW.H
C:\DEVELOPER\OPENFRAMEWORKS\OF_V0.8.4_VS_RELEASE\LIBS\OPENFRAMEWORKS\GL\OFGLPROGRAMMABLERENDERER.H
C:\DEVELOPER\OPENFRAMEWORKS\OF_V0.8.4_VS_RELEASE\LIBS\OPENFRAMEWORKS\GRAPHICS\OFCAIRORENDERER.H
C:\DEVELOPER\OPENFRAMEWORKS\OF_V0.8.4_VS_RELEASE\LIBS\CAIRO\INCLUDE\CAIRO\CAIRO-FEATURES.H
C:\DEVELOPER\OPENFRAMEWORKS\OF_V0.8.4_VS_RELEASE\LIBS\CAIRO\INCLUDE\CAIRO\CAIRO-PDF.H
C:\DEVELOPER\OPENFRAMEWORKS\OF_V0.8.4_VS_RELEASE\LIBS\CAIRO\INCLUDE\CAIRO\CAIRO.H
C:\DEVELOPER\OPENFRAMEWORKS\OF_V0.8.4_VS_RELEASE\LIBS\CAIRO\INCLUDE\CAIRO\CAIRO-VERSION.H
C:\DEVELOPER\OPENFRAMEWORKS\OF_V0.8.4_VS_RELEASE\LIBS\CAIRO\INCLUDE\CAIRO\CAIRO-DEPRECATED.H
C:\DEVELOPER\OPENFRAMEWORKS\OF_V0.8.4_VS_RELEASE\LIBS\CAIRO\INCLUDE\CAIRO\CAIRO-SVG.H
C:\DEVELOPER\OPENFRAMEWORKS\OF_V0.8.4_VS_RELEASE\LIBS\OPENFRAMEWORKS\GRAPHICS\OFPATH.H
C:\DEVELOPER\OPENFRAMEWORKS\OF_V0.8.4_VS_RELEASE\LIBS\OPENFRAMEWORKS\GRAPHICS\OFTESSELLATOR.H
C:\DEVELOPER\OPENFRAMEWORKS\OF_V0.8.4_VS_RELEASE\LIBS\OPENFRAMEWORKS\GRAPHICS\OFIMAGE.H
C:\DEVELOPER\OPENFRAMEWORKS\OF_V0.8.4_VS_RELEASE\LIBS\OPENFRAMEWORKS\GRAPHICS\OFRENDERERCOLLECTION.H
C:\DEVELOPER\OPENFRAMEWORKS\OF_V0.8.4_VS_RELEASE\LIBS\OPENFRAMEWORKS\GRAPHICS\OFTRUETYPEFONT.H
C:\DEVELOPER\OPENFRAMEWORKS\OF_V0.8.4_VS_RELEASE\LIBS\OPENFRAMEWORKS\APP\OFBASEAPP.H
C:\DEVELOPER\OPENFRAMEWORKS\OF_V0.8.4_VS_RELEASE\LIBS\OPENFRAMEWORKS\APP\OFAPPRUNNER.H
C:\DEVELOPER\OPENFRAMEWORKS\OF_V0.8.4_VS_RELEASE\LIBS\OPENFRAMEWORKS\SOUND\OFSOUNDSTREAM.H
C:\DEVELOPER\OPENFRAMEWORKS\OF_V0.8.4_VS_RELEASE\LIBS\OPENFRAMEWORKS\SOUND\OFBASESOUNDSTREAM.H
C:\DEVELOPER\OPENFRAMEWORKS\OF_V0.8.4_VS_RELEASE\LIBS\OPENFRAMEWORKS\SOUND\OFRTAUDIOSOUNDSTREAM.H
C:\DEVELOPER\OPENFRAMEWORKS\OF_V0.8.4_VS_RELEASE\LIBS\OPENFRAMEWORKS\SOUND\OFSOUNDPLAYER.H
C:\DEVELOPER\OPENFRAMEWORKS\OF_V0.8.4_VS_RELEASE\LIBS\OPENFRAMEWORKS\SOUND\OFBASESOUNDPLAYER.H
C:\DEVELOPER\OPENFRAMEWORKS\OF_V0.8.4_VS_RELEASE\LIBS\OPENFRAMEWORKS\SOUND\OFFMODSOUNDPLAYER.H
C:\DEVELOPER\OPENFRAMEWORKS\OF_V0.8.4_VS_RELEASE\LIBS\FMODEX\INCLUDE\FMOD.H
C:\DEVELOPER\OPENFRAMEWORKS\OF_V0.8.4_VS_RELEASE\LIBS\FMODEX\INCLUDE\FMOD_CODEC.H
C:\DEVELOPER\OPENFRAMEWORKS\OF_V0.8.4_VS_RELEASE\LIBS\FMODEX\INCLUDE\FMOD_DSP.H
C:\DEVELOPER\OPENFRAMEWORKS\OF_V0.8.4_VS_RELEASE\LIBS\FMODEX\INCLUDE\FMOD_MEMORYINFO.H
C:\DEVELOPER\OPENFRAMEWORKS\OF_V0.8.4_VS_RELEASE\LIBS\FMODEX\INCLUDE\FMOD_ERRORS.H
C:\DEVELOPER\OPENFRAMEWORKS\OF_V0.8.4_VS_RELEASE\LIBS\OPENFRAMEWORKS\VIDEO\OFVIDEOGRABBER.H
C:\DEVELOPER\OPENFRAMEWORKS\OF_V0.8.4_VS_RELEASE\LIBS\OPENFRAMEWORKS\VIDEO\OFDIRECTSHOWGRABBER.H
C:\DEVELOPER\OPENFRAMEWORKS\OF_V0.8.4_VS_RELEASE\LIBS\VIDEOINPUT\INCLUDE\VIDEOINPUT.H
C:\DEVELOPER\OPENFRAMEWORKS\OF_V0.8.4_VS_RELEASE\LIBS\OPENFRAMEWORKS\VIDEO\OFVIDEOPLAYER.H
C:\DEVELOPER\OPENFRAMEWORKS\OF_V0.8.4_VS_RELEASE\LIBS\OPENFRAMEWORKS\VIDEO\OFQUICKTIMEPLAYER.H
C:\DEVELOPER\OPENFRAMEWORKS\OF_V0.8.4_VS_RELEASE\LIBS\OPENFRAMEWORKS\VIDEO\OFQTUTILS.H
C:\DEVELOPER\OPENFRAMEWORKS\OF_V0.8.4_VS_RELEASE\LIBS\QUICKTIME\INCLUDE\QTML.H
C:\DEVELOPER\OPENFRAMEWORKS\OF_V0.8.4_VS_RELEASE\LIBS\QUICKTIME\INCLUDE\MACTYPES.H
C:\DEVELOPER\OPENFRAMEWORKS\OF_V0.8.4_VS_RELEASE\LIBS\QUICKTIME\INCLUDE\CONDITIONALMACROS.H
C:\DEVELOPER\OPENFRAMEWORKS\OF_V0.8.4_VS_RELEASE\LIBS\QUICKTIME\INCLUDE\MACMEMORY.H
C:\DEVELOPER\OPENFRAMEWORKS\OF_V0.8.4_VS_RELEASE\LIBS\QUICKTIME\INCLUDE\MIXEDMODE.H
C:\DEVELOPER\OPENFRAMEWORKS\OF_V0.8.4_VS_RELEASE\LIBS\QUICKTIME\INCLUDE\MACWINDOWS.H
C:\DEVELOPER\OPENFRAMEWORKS\OF_V0.8.4_VS_RELEASE\LIBS\QUICKTIME\INCLUDE\ALIASES.H
C:\DEVELOPER\OPENFRAMEWORKS\OF_V0.8.4_VS_RELEASE\LIBS\QUICKTIME\INCLUDE\APPLETALK.H
C:\DEVELOPER\OPENFRAMEWORKS\OF_V0.8.4_VS_RELEASE\LIBS\QUICKTIME\INCLUDE\OSUTILS.H
C:\DEVELOPER\OPENFRAMEWORKS\OF_V0.8.4_VS_RELEASE\LIBS\QUICKTIME\INCLUDE\PATCHES.H
C:\DEVELOPER\OPENFRAMEWORKS\OF_V0.8.4_VS_RELEASE\LIBS\QUICKTIME\INCLUDE\DATETIMEUTILS.H
C:\DEVELOPER\OPENFRAMEWORKS\OF_V0.8.4_VS_RELEASE\LIBS\QUICKTIME\INCLUDE\ENDIAN.H
C:\DEVELOPER\OPENFRAMEWORKS\OF_V0.8.4_VS_RELEASE\LIBS\QUICKTIME\INCLUDE\FILES.H
C:\DEVELOPER\OPENFRAMEWORKS\OF_V0.8.4_VS_RELEASE\LIBS\QUICKTIME\INCLUDE\TEXTCOMMON.H
C:\DEVELOPER\OPENFRAMEWORKS\OF_V0.8.4_VS_RELEASE\LIBS\QUICKTIME\INCLUDE\UTCUTILS.H
C:\DEVELOPER\OPENFRAMEWORKS\OF_V0.8.4_VS_RELEASE\LIBS\QUICKTIME\INCLUDE\MACERRORS.H
C:\DEVELOPER\OPENFRAMEWORKS\OF_V0.8.4_VS_RELEASE\LIBS\QUICKTIME\INCLUDE\FINDER.H
C:\DEVELOPER\OPENFRAMEWORKS\OF_V0.8.4_VS_RELEASE\LIBS\QUICKTIME\INCLUDE\APPLEEVENTS.H
C:\DEVELOPER\OPENFRAMEWORKS\OF_V0.8.4_VS_RELEASE\LIBS\QUICKTIME\INCLUDE\NOTIFICATION.H
C:\DEVELOPER\OPENFRAMEWORKS\OF_V0.8.4_VS_RELEASE\LIBS\QUICKTIME\INCLUDE\EVENTS.H
C:\DEVELOPER\OPENFRAMEWORKS\OF_V0.8.4_VS_RELEASE\LIBS\QUICKTIME\INCLUDE\QUICKDRAW.H
C:\DEVELOPER\OPENFRAMEWORKS\OF_V0.8.4_VS_RELEASE\LIBS\QUICKTIME\INCLUDE\COMPONENTS.H
C:\DEVELOPER\OPENFRAMEWORKS\OF_V0.8.4_VS_RELEASE\LIBS\QUICKTIME\INCLUDE\QUICKDRAWTEXT.H
C:\DEVELOPER\OPENFRAMEWORKS\OF_V0.8.4_VS_RELEASE\LIBS\QUICKTIME\INCLUDE\AEDATAMODEL.H
C:\DEVELOPER\OPENFRAMEWORKS\OF_V0.8.4_VS_RELEASE\LIBS\QUICKTIME\INCLUDE\COLLECTIONS.H
C:\DEVELOPER\OPENFRAMEWORKS\OF_V0.8.4_VS_RELEASE\LIBS\QUICKTIME\INCLUDE\DRAG.H
C:\DEVELOPER\OPENFRAMEWORKS\OF_V0.8.4_VS_RELEASE\LIBS\QUICKTIME\INCLUDE\MENUS.H
C:\DEVELOPER\OPENFRAMEWORKS\OF_V0.8.4_VS_RELEASE\LIBS\QUICKTIME\INCLUDE\FONTS.H
C:\DEVELOPER\OPENFRAMEWORKS\OF_V0.8.4_VS_RELEASE\LIBS\QUICKTIME\INCLUDE\PROCESSES.H
C:\DEVELOPER\OPENFRAMEWORKS\OF_V0.8.4_VS_RELEASE\LIBS\QUICKTIME\INCLUDE\QDOFFSCREEN.H
C:\DEVELOPER\OPENFRAMEWORKS\OF_V0.8.4_VS_RELEASE\LIBS\QUICKTIME\INCLUDE\ICONS.H
C:\DEVELOPER\OPENFRAMEWORKS\OF_V0.8.4_VS_RELEASE\LIBS\QUICKTIME\INCLUDE\CODEFRAGMENTS.H
C:\DEVELOPER\OPENFRAMEWORKS\OF_V0.8.4_VS_RELEASE\LIBS\QUICKTIME\INCLUDE\FIXMATH.H
C:\DEVELOPER\OPENFRAMEWORKS\OF_V0.8.4_VS_RELEASE\LIBS\QUICKTIME\INCLUDE\QUICKTIMECOMPONENTS.H
C:\DEVELOPER\OPENFRAMEWORKS\OF_V0.8.4_VS_RELEASE\LIBS\QUICKTIME\INCLUDE\IMAGECOMPRESSION.H
C:\DEVELOPER\OPENFRAMEWORKS\OF_V0.8.4_VS_RELEASE\LIBS\QUICKTIME\INCLUDE\STANDARDFILE.H
C:\DEVELOPER\OPENFRAMEWORKS\OF_V0.8.4_VS_RELEASE\LIBS\QUICKTIME\INCLUDE\DIALOGS.H
C:\DEVELOPER\OPENFRAMEWORKS\OF_V0.8.4_VS_RELEASE\LIBS\QUICKTIME\INCLUDE\TEXTEDIT.H
C:\DEVELOPER\OPENFRAMEWORKS\OF_V0.8.4_VS_RELEASE\LIBS\QUICKTIME\INCLUDE\CONTROLS.H
C:\DEVELOPER\OPENFRAMEWORKS\OF_V0.8.4_VS_RELEASE\LIBS\QUICKTIME\INCLUDE\MOVIES.H
C:\DEVELOPER\OPENFRAMEWORKS\OF_V0.8.4_VS_RELEASE\LIBS\QUICKTIME\INCLUDE\VIDEO.H
C:\DEVELOPER\OPENFRAMEWORKS\OF_V0.8.4_VS_RELEASE\LIBS\QUICKTIME\INCLUDE\SOUND.H
C:\DEVELOPER\OPENFRAMEWORKS\OF_V0.8.4_VS_RELEASE\LIBS\QUICKTIME\INCLUDE\QUICKTIMEMUSIC.H
C:\DEVELOPER\OPENFRAMEWORKS\OF_V0.8.4_VS_RELEASE\LIBS\QUICKTIME\INCLUDE\TEXTUTILS.H
C:\DEVELOPER\OPENFRAMEWORKS\OF_V0.8.4_VS_RELEASE\LIBS\QUICKTIME\INCLUDE\NUMBERFORMATTING.H
C:\DEVELOPER\OPENFRAMEWORKS\OF_V0.8.4_VS_RELEASE\LIBS\QUICKTIME\INCLUDE\INTLRESOURCES.H
C:\DEVELOPER\OPENFRAMEWORKS\OF_V0.8.4_VS_RELEASE\LIBS\QUICKTIME\INCLUDE\STRINGCOMPARE.H
C:\DEVELOPER\OPENFRAMEWORKS\OF_V0.8.4_VS_RELEASE\LIBS\QUICKTIME\INCLUDE\SCRIPT.H
C:\DEVELOPER\OPENFRAMEWORKS\OF_V0.8.4_VS_RELEASE\LIBS\QUICKTIME\INCLUDE\MEDIAHANDLERS.H
C:\DEVELOPER\OPENFRAMEWORKS\OF_V0.8.4_VS_RELEASE\LIBS\OPENFRAMEWORKS\3D\OFCAMERA.H
C:\DEVELOPER\OPENFRAMEWORKS\OF_V0.8.4_VS_RELEASE\LIBS\OPENFRAMEWORKS\3D\OFEASYCAM.H
C:\DEVELOPER\OPENFRAMEWORKS\OF_V0.8.4_VS_RELEASE\ADDONS\OFXEYEFACE\SRC\OFXEYEFACE.H
C:\DEVELOPER\OPENFRAMEWORKS\OF_V0.8.4_VS_RELEASE\ADDONS\OFXEYEFACE\LIBS\EYEFACESDK\INCLUDE\EYEFACE.H
C:\DEVELOPER\OPENFRAMEWORKS\OF_V0.8.4_VS_RELEASE\ADDONS\OFXEYEFACE\LIBS\EYEFACESDK\INCLUDE\EYEFACETYPE.H
C:\PROGRAM FILES (X86)\MICROSOFT VISUAL STUDIO 11.0\VC\INCLUDE\DIRECT.H
C:\PROGRAM FILES (X86)\MICROSOFT VISUAL STUDIO 11.0\VC\INCLUDE\IO.H
C:\PROGRAM FILES (X86)\MICROSOFT VISUAL STUDIO 11.0\VC\BIN\1033\CLUI.DLL
C:\WINDOWS\GLOBALIZATION\SORTING\SORTDEFAULT.NLS
C:\WINDOWS\SYSTEM32\TZRES.DLL
^C:\DEVELOPER\OPENFRAMEWORKS\OF_V0.8.4_VS_RELEASE\APPS\MYAPPS\OFXEYEFACETEST\SRC\MAIN.CPP
C:\DEVELOPER\OPENFRAMEWORKS\OF_V0.8.4_VS_RELEASE\LIBS\OPENFRAMEWORKS\OFMAIN.H
C:\DEVELOPER\OPENFRAMEWORKS\OF_V0.8.4_VS_RELEASE\LIBS\OPENFRAMEWORKS\UTILS\OFCONSTANTS.H
C:\PROGRAM FILES (X86)\MICROSOFT VISUAL STUDIO 11.0\VC\INCLUDE\STDINT.H
C:\PROGRAM FILES (X86)\MICROSOFT VISUAL STUDIO 11.0\VC\INCLUDE\CRTDEFS.H
C:\PROGRAM FILES (X86)\MICROSOFT VISUAL STUDIO 11.0\VC\INCLUDE\SAL.H
C:\PROGRAM FILES (X86)\MICROSOFT VISUAL STUDIO 11.0\VC\INCLUDE\CONCURRENCYSAL.H
C:\PROGRAM FILES (X86)\MICROSOFT VISUAL STUDIO 11.0\VC\INCLUDE\VADEFS.H
C:\PROGRAM FILES (X86)\WINDOWS KITS\8.0\INCLUDE\UM\WINDOWS.H
C:\PROGRAM FILES (X86)\WINDOWS KITS\8.0\INCLUDE\SHARED\WINAPIFAMILY.H
C:\PROGRAM FILES (X86)\WINDOWS KITS\8.0\INCLUDE\SHARED\SDKDDKVER.H
C:\PROGRAM FILES (X86)\MICROSOFT VISUAL STUDIO 11.0\VC\INCLUDE\EXCPT.H
C:\PROGRAM FILES (X86)\MICROSOFT VISUAL STUDIO 11.0\VC\INCLUDE\STDARG.H
C:\PROGRAM FILES (X86)\WINDOWS KITS\8.0\INCLUDE\SHARED\WINDEF.H
C:\PROGRAM FILES (X86)\WINDOWS KITS\8.0\INCLUDE\SHARED\MINWINDEF.H
C:\PROGRAM FILES (X86)\WINDOWS KITS\8.0\INCLUDE\SHARED\SPECSTRINGS.H
C:\PROGRAM FILES (X86)\WINDOWS KITS\8.0\INCLUDE\SHARED\SPECSTRINGS_STRICT.H
C:\PROGRAM FILES (X86)\WINDOWS KITS\8.0\INCLUDE\SHARED\SPECSTRINGS_UNDEF.H
C:\PROGRAM FILES (X86)\WINDOWS KITS\8.0\INCLUDE\SHARED\DRIVERSPECS.H
C:\PROGRAM FILES (X86)\WINDOWS KITS\8.0\INCLUDE\SHARED\SDV_DRIVERSPECS.H
C:\PROGRAM FILES (X86)\WINDOWS KITS\8.0\INCLUDE\UM\WINNT.H
C:\PROGRAM FILES (X86)\MICROSOFT VISUAL STUDIO 11.0\VC\INCLUDE\CTYPE.H
C:\PROGRAM FILES (X86)\WINDOWS KITS\8.0\INCLUDE\SHARED\KERNELSPECS.H
C:\PROGRAM FILES (X86)\WINDOWS KITS\8.0\INCLUDE\SHARED\BASETSD.H
C:\PROGRAM FILES (X86)\WINDOWS KITS\8.0\INCLUDE\SHARED\GUIDDEF.H
C:\PROGRAM FILES (X86)\MICROSOFT VISUAL STUDIO 11.0\VC\INCLUDE\STRING.H
C:\PROGRAM FILES (X86)\WINDOWS KITS\8.0\INCLUDE\SHARED\PSHPACK4.H
C:\PROGRAM FILES (X86)\WINDOWS KITS\8.0\INCLUDE\SHARED\POPPACK.H
C:\PROGRAM FILES (X86)\WINDOWS KITS\8.0\INCLUDE\SHARED\PSHPACK2.H
C:\PROGRAM FILES (X86)\WINDOWS KITS\8.0\INCLUDE\SHARED\PSHPACK8.H
C:\PROGRAM FILES (X86)\WINDOWS KITS\8.0\INCLUDE\SHARED\APISET.H
C:\PROGRAM FILES (X86)\WINDOWS KITS\8.0\INCLUDE\SHARED\KTMTYPES.H
C:\PROGRAM FILES (X86)\WINDOWS KITS\8.0\INCLUDE\UM\WINBASE.H
C:\PROGRAM FILES (X86)\WINDOWS KITS\8.0\INCLUDE\SHARED\APISETCCONV.H
C:\PROGRAM FILES (X86)\WINDOWS KITS\8.0\INCLUDE\UM\MINWINBASE.H
C:\PROGRAM FILES (X86)\WINDOWS KITS\8.0\INCLUDE\UM\PROCESSENV.H
C:\PROGRAM FILES (X86)\WINDOWS KITS\8.0\INCLUDE\UM\FILEAPI.H
C:\PROGRAM FILES (X86)\WINDOWS KITS\8.0\INCLUDE\UM\DEBUGAPI.H
C:\PROGRAM FILES (X86)\WINDOWS KITS\8.0\INCLUDE\UM\UTILAPISET.H
C:\PROGRAM FILES (X86)\WINDOWS KITS\8.0\INCLUDE\UM\HANDLEAPI.H
C:\PROGRAM FILES (X86)\WINDOWS KITS\8.0\INCLUDE\UM\ERRHANDLINGAPI.H
C:\PROGRAM FILES (X86)\WINDOWS KITS\8.0\INCLUDE\UM\FIBERSAPI.H
C:\PROGRAM FILES (X86)\WINDOWS KITS\8.0\INCLUDE\UM\NAMEDPIPEAPI.H
C:\PROGRAM FILES (X86)\WINDOWS KITS\8.0\INCLUDE\UM\PROFILEAPI.H
C:\PROGRAM FILES (X86)\WINDOWS KITS\8.0\INCLUDE\UM\HEAPAPI.H
C:\PROGRAM FILES (X86)\WINDOWS KITS\8.0\INCLUDE\UM\IOAPISET.H
C:\PROGRAM FILES (X86)\WINDOWS KITS\8.0\INCLUDE\UM\SYNCHAPI.H
C:\PROGRAM FILES (X86)\WINDOWS KITS\8.0\INCLUDE\UM\INTERLOCKEDAPI.H
C:\PROGRAM FILES (X86)\WINDOWS KITS\8.0\INCLUDE\UM\PROCESSTHREADSAPI.H
C:\PROGRAM FILES (X86)\WINDOWS KITS\8.0\INCLUDE\UM\SYSINFOAPI.H
C:\PROGRAM FILES (X86)\WINDOWS KITS\8.0\INCLUDE\UM\MEMORYAPI.H
C:\PROGRAM FILES (X86)\WINDOWS KITS\8.0\INCLUDE\UM\THREADPOOLLEGACYAPISET.H
C:\PROGRAM FILES (X86)\WINDOWS KITS\8.0\INCLUDE\UM\THREADPOOLAPISET.H
C:\PROGRAM FILES (X86)\WINDOWS KITS\8.0\INCLUDE\UM\BEMAPISET.H
C:\PROGRAM FILES (X86)\WINDOWS KITS\8.0\INCLUDE\UM\JOBAPI.H
C:\PROGRAM FILES (X86)\WINDOWS KITS\8.0\INCLUDE\UM\WOW64APISET.H
C:\PROGRAM FILES (X86)\WINDOWS KITS\8.0\INCLUDE\UM\LIBLOADERAPI.H
C:\PROGRAM FILES (X86)\WINDOWS KITS\8.0\INCLUDE\UM\SECURITYBASEAPI.H
C:\PROGRAM FILES (X86)\WINDOWS KITS\8.0\INCLUDE\UM\NAMESPACEAPI.H
C:\PROGRAM FILES (X86)\WINDOWS KITS\8.0\INCLUDE\UM\SYSTEMTOPOLOGYAPI.H
C:\PROGRAM FILES (X86)\WINDOWS KITS\8.0\INCLUDE\UM\PROCESSTOPOLOGYAPI.H
C:\PROGRAM FILES (X86)\WINDOWS KITS\8.0\INCLUDE\UM\SECURITYAPPCONTAINER.H
C:\PROGRAM FILES (X86)\WINDOWS KITS\8.0\INCLUDE\UM\REALTIMEAPISET.H
C:\PROGRAM FILES (X86)\WINDOWS KITS\8.0\INCLUDE\SHARED\WINERROR.H
C:\PROGRAM FILES (X86)\WINDOWS KITS\8.0\INCLUDE\UM\TIMEZONEAPI.H
C:\PROGRAM FILES (X86)\WINDOWS KITS\8.0\INCLUDE\UM\WINGDI.H
C:\PROGRAM FILES (X86)\WINDOWS KITS\8.0\INCLUDE\SHARED\PSHPACK1.H
C:\PROGRAM FILES (X86)\WINDOWS KITS\8.0\INCLUDE\UM\WINUSER.H
C:\PROGRAM FILES (X86)\WINDOWS KITS\8.0\INCLUDE\SHARED\TVOUT.H
C:\PROGRAM FILES (X86)\WINDOWS KITS\8.0\INCLUDE\UM\WINNLS.H
C:\PROGRAM FILES (X86)\WINDOWS KITS\8.0\INCLUDE\UM\DATETIMEAPI.H
C:\PROGRAM FILES (X86)\WINDOWS KITS\8.0\INCLUDE\UM\STRINGAPISET.H
C:\PROGRAM FILES (X86)\WINDOWS KITS\8.0\INCLUDE\UM\WINCON.H
C:\PROGRAM FILES (X86)\WINDOWS KITS\8.0\INCLUDE\UM\CONSOLEAPI.H
C:\PROGRAM FILES (X86)\WINDOWS KITS\8.0\INCLUDE\UM\WINVER.H
C:\PROGRAM FILES (X86)\WINDOWS KITS\8.0\INCLUDE\UM\VERRSRC.H
C:\PROGRAM FILES (X86)\WINDOWS KITS\8.0\INCLUDE\UM\WINREG.H
C:\PROGRAM FILES (X86)\WINDOWS KITS\8.0\INCLUDE\UM\REASON.H
C:\PROGRAM FILES (X86)\WINDOWS KITS\8.0\INCLUDE\UM\WINNETWK.H
C:\PROGRAM FILES (X86)\WINDOWS KITS\8.0\INCLUDE\SHARED\WNNC.H
C:\PROGRAM FILES (X86)\WINDOWS KITS\8.0\INCLUDE\SHARED\STRALIGN.H
C:\PROGRAM FILES (X86)\WINDOWS KITS\8.0\INCLUDE\UM\WINSVC.H
C:\PROGRAM FILES (X86)\WINDOWS KITS\8.0\INCLUDE\UM\MCX.H
C:\PROGRAM FILES (X86)\WINDOWS KITS\8.0\INCLUDE\UM\IMM.H
C:\PROGRAM FILES (X86)\WINDOWS KITS\8.0\INCLUDE\UM\IME_CMODES.H
C:\DEVELOPER\OPENFRAMEWORKS\OF_V0.8.4_VS_RELEASE\LIBS\GLEW\INCLUDE\GL\GLEW.H
C:\PROGRAM FILES (X86)\WINDOWS KITS\8.0\INCLUDE\UM\GL\GLU.H
C:\PROGRAM FILES (X86)\WINDOWS KITS\8.0\INCLUDE\UM\GL\GL.H
C:\DEVELOPER\OPENFRAMEWORKS\OF_V0.8.4_VS_RELEASE\LIBS\GLEW\INCLUDE\GL\WGLEW.H
C:\DEVELOPER\OPENFRAMEWORKS\OF_V0.8.4_VS_RELEASE\LIBS\GLU\INCLUDE\GLU.H
C:\PROGRAM FILES (X86)\MICROSOFT VISUAL STUDIO 11.0\VC\INCLUDE\FUNCTIONAL
C:\PROGRAM FILES (X86)\MICROSOFT VISUAL STUDIO 11.0\VC\INCLUDE\XFUNCTIONAL
C:\PROGRAM FILES (X86)\MICROSOFT VISUAL STUDIO 11.0\VC\INCLUDE\CSTDLIB
C:\PROGRAM FILES (X86)\MICROSOFT VISUAL STUDIO 11.0\VC\INCLUDE\YVALS.H
C:\PROGRAM FILES (X86)\MICROSOFT VISUAL STUDIO 11.0\VC\INCLUDE\XKEYCHECK.H
C:\PROGRAM FILES (X86)\MICROSOFT VISUAL STUDIO 11.0\VC\INCLUDE\USE_ANSI.H
C:\PROGRAM FILES (X86)\MICROSOFT VISUAL STUDIO 11.0\VC\INCLUDE\STDLIB.H
C:\PROGRAM FILES (X86)\MICROSOFT VISUAL STUDIO 11.0\VC\INCLUDE\LIMITS.H
C:\PROGRAM FILES (X86)\MICROSOFT VISUAL STUDIO 11.0\VC\INCLUDE\XSTRING
C:\PROGRAM FILES (X86)\MICROSOFT VISUAL STUDIO 11.0\VC\INCLUDE\XMEMORY0
C:\PROGRAM FILES (X86)\MICROSOFT VISUAL STUDIO 11.0\VC\INCLUDE\LIMITS
C:\PROGRAM FILES (X86)\MICROSOFT VISUAL STUDIO 11.0\VC\INCLUDE\YMATH.H
C:\PROGRAM FILES (X86)\MICROSOFT VISUAL STUDIO 11.0\VC\INCLUDE\CFLOAT
C:\PROGRAM FILES (X86)\MICROSOFT VISUAL STUDIO 11.0\VC\INCLUDE\FLOAT.H
C:\PROGRAM FILES (X86)\MICROSOFT VISUAL STUDIO 11.0\VC\INCLUDE\CRTWRN.H
C:\PROGRAM FILES (X86)\MICROSOFT VISUAL STUDIO 11.0\VC\INCLUDE\CLIMITS
C:\PROGRAM FILES (X86)\MICROSOFT VISUAL STUDIO 11.0\VC\INCLUDE\CMATH
C:\PROGRAM FILES (X86)\MICROSOFT VISUAL STUDIO 11.0\VC\INCLUDE\MATH.H
C:\PROGRAM FILES (X86)\MICROSOFT VISUAL STUDIO 11.0\VC\INCLUDE\XTGMATH.H
C:\PROGRAM FILES (X86)\MICROSOFT VISUAL STUDIO 11.0\VC\INCLUDE\XTR1COMMON
C:\PROGRAM FILES (X86)\MICROSOFT VISUAL STUDIO 11.0\VC\INCLUDE\CWCHAR
C:\PROGRAM FILES (X86)\MICROSOFT VISUAL STUDIO 11.0\VC\INCLUDE\WCHAR.H
C:\PROGRAM FILES (X86)\MICROSOFT VISUAL STUDIO 11.0\VC\INCLUDE\SWPRINTF.INL
C:\PROGRAM FILES (X86)\MICROSOFT VISUAL STUDIO 11.0\VC\INCLUDE\WTIME.INL
C:\PROGRAM FILES (X86)\MICROSOFT VISUAL STUDIO 11.0\VC\INCLUDE\XSTDDEF
C:\PROGRAM FILES (X86)\MICROSOFT VISUAL STUDIO 11.0\VC\INCLUDE\CSTDDEF
C:\PROGRAM FILES (X86)\MICROSOFT VISUAL STUDIO 11.0\VC\INCLUDE\STDDEF.H
C:\PROGRAM FILES (X86)\MICROSOFT VISUAL STUDIO 11.0\VC\INCLUDE\NEW
C:\PROGRAM FILES (X86)\MICROSOFT VISUAL STUDIO 11.0\VC\INCLUDE\EXCEPTION
C:\PROGRAM FILES (X86)\MICROSOFT VISUAL STUDIO 11.0\VC\INCLUDE\EH.H
C:\PROGRAM FILES (X86)\MICROSOFT VISUAL STUDIO 11.0\VC\INCLUDE\MALLOC.H
C:\PROGRAM FILES (X86)\MICROSOFT VISUAL STUDIO 11.0\VC\INCLUDE\XUTILITY
C:\PROGRAM FILES (X86)\MICROSOFT VISUAL STUDIO 11.0\VC\INCLUDE\UTILITY
C:\PROGRAM FILES (X86)\MICROSOFT VISUAL STUDIO 11.0\VC\INCLUDE\IOSFWD
C:\PROGRAM FILES (X86)\MICROSOFT VISUAL STUDIO 11.0\VC\INCLUDE\CSTDIO
C:\PROGRAM FILES (X86)\MICROSOFT VISUAL STUDIO 11.0\VC\INCLUDE\STDIO.H
C:\PROGRAM FILES (X86)\MICROSOFT VISUAL STUDIO 11.0\VC\INCLUDE\CSTRING
C:\PROGRAM FILES (X86)\MICROSOFT VISUAL STUDIO 11.0\VC\INCLUDE\CRTDBG.H
C:\PROGRAM FILES (X86)\MICROSOFT VISUAL STUDIO 11.0\VC\INCLUDE\TYPE_TRAITS
C:\PROGRAM FILES (X86)\MICROSOFT VISUAL STUDIO 11.0\VC\INCLUDE\XREFWRAP
C:\PROGRAM FILES (X86)\MICROSOFT VISUAL STUDIO 11.0\VC\INCLUDE\XATOMIC0.H
C:\PROGRAM FILES (X86)\MICROSOFT VISUAL STUDIO 11.0\VC\INCLUDE\INTRIN.H
C:\PROGRAM FILES (X86)\MICROSOFT VISUAL STUDIO 11.0\VC\INCLUDE\SETJMP.H
C:\PROGRAM FILES (X86)\MICROSOFT VISUAL STUDIO 11.0\VC\INCLUDE\IMMINTRIN.H
C:\PROGRAM FILES (X86)\MICROSOFT VISUAL STUDIO 11.0\VC\INCLUDE\WMMINTRIN.H
C:\PROGRAM FILES (X86)\MICROSOFT VISUAL STUDIO 11.0\VC\INCLUDE\NMMINTRIN.H
C:\PROGRAM FILES (X86)\MICROSOFT VISUAL STUDIO 11.0\VC\INCLUDE\SMMINTRIN.H
C:\PROGRAM FILES (X86)\MICROSOFT VISUAL STUDIO 11.0\VC\INCLUDE\TMMINTRIN.H
C:\PROGRAM FILES (X86)\MICROSOFT VISUAL STUDIO 11.0\VC\INCLUDE\PMMINTRIN.H
C:\PROGRAM FILES (X86)\MICROSOFT VISUAL STUDIO 11.0\VC\INCLUDE\EMMINTRIN.H
C:\PROGRAM FILES (X86)\MICROSOFT VISUAL STUDIO 11.0\VC\INCLUDE\XMMINTRIN.H
C:\PROGRAM FILES (X86)\MICROSOFT VISUAL STUDIO 11.0\VC\INCLUDE\MMINTRIN.H
C:\PROGRAM FILES (X86)\MICROSOFT VISUAL STUDIO 11.0\VC\INCLUDE\AMMINTRIN.H
C:\PROGRAM FILES (X86)\MICROSOFT VISUAL STUDIO 11.0\VC\INCLUDE\MM3DNOW.H
C:\PROGRAM FILES (X86)\MICROSOFT VISUAL STUDIO 11.0\VC\INCLUDE\TYPEINFO
C:\PROGRAM FILES (X86)\MICROSOFT VISUAL STUDIO 11.0\VC\INCLUDE\TUPLE
C:\DEVELOPER\OPENFRAMEWORKS\OF_V0.8.4_VS_RELEASE\LIBS\TESS2\INCLUDE\TESSELATOR.H
C:\PROGRAM FILES (X86)\MICROSOFT VISUAL STUDIO 11.0\VC\INCLUDE\CSTDARG
C:\PROGRAM FILES (X86)\MICROSOFT VISUAL STUDIO 11.0\VC\INCLUDE\CTIME
C:\PROGRAM FILES (X86)\MICROSOFT VISUAL STUDIO 11.0\VC\INCLUDE\TIME.H
C:\PROGRAM FILES (X86)\MICROSOFT VISUAL STUDIO 11.0\VC\INCLUDE\TIME.INL
C:\PROGRAM FILES (X86)\MICROSOFT VISUAL STUDIO 11.0\VC\INCLUDE\STRING
C:\PROGRAM FILES (X86)\MICROSOFT VISUAL STUDIO 11.0\VC\INCLUDE\ITERATOR
C:\PROGRAM FILES (X86)\MICROSOFT VISUAL STUDIO 11.0\VC\INCLUDE\ISTREAM
C:\PROGRAM FILES (X86)\MICROSOFT VISUAL STUDIO 11.0\VC\INCLUDE\OSTREAM
C:\PROGRAM FILES (X86)\MICROSOFT VISUAL STUDIO 11.0\VC\INCLUDE\IOS
C:\PROGRAM FILES (X86)\MICROSOFT VISUAL STUDIO 11.0\VC\INCLUDE\XLOCNUM
C:\PROGRAM FILES (X86)\MICROSOFT VISUAL STUDIO 11.0\VC\INCLUDE\STREAMBUF
C:\PROGRAM FILES (X86)\MICROSOFT VISUAL STUDIO 11.0\VC\INCLUDE\XIOSBASE
C:\PROGRAM FILES (X86)\MICROSOFT VISUAL STUDIO 11.0\VC\INCLUDE\XLOCALE
C:\PROGRAM FILES (X86)\MICROSOFT VISUAL STUDIO 11.0\VC\INCLUDE\STDEXCEPT
C:\PROGRAM FILES (X86)\MICROSOFT VISUAL STUDIO 11.0\VC\INCLUDE\XLOCINFO
C:\PROGRAM FILES (X86)\MICROSOFT VISUAL STUDIO 11.0\VC\INCLUDE\XLOCINFO.H
C:\PROGRAM FILES (X86)\MICROSOFT VISUAL STUDIO 11.0\VC\INCLUDE\LOCALE.H
C:\PROGRAM FILES (X86)\MICROSOFT VISUAL STUDIO 11.0\VC\INCLUDE\XDEBUG
C:\PROGRAM FILES (X86)\MICROSOFT VISUAL STUDIO 11.0\VC\INCLUDE\XMEMORY
C:\PROGRAM FILES (X86)\MICROSOFT VISUAL STUDIO 11.0\VC\INCLUDE\XFACET
C:\PROGRAM FILES (X86)\MICROSOFT VISUAL STUDIO 11.0\VC\INCLUDE\SYSTEM_ERROR
C:\PROGRAM FILES (X86)\MICROSOFT VISUAL STUDIO 11.0\VC\INCLUDE\CERRNO
C:\PROGRAM FILES (X86)\MICROSOFT VISUAL STUDIO 11.0\VC\INCLUDE\ERRNO.H
C:\PROGRAM FILES (X86)\MICROSOFT VISUAL STUDIO 11.0\VC\INCLUDE\SHARE.H
C:\PROGRAM FILES (X86)\MICROSOFT VISUAL STUDIO 11.0\VC\INCLUDE\IOSTREAM
C:\PROGRAM FILES (X86)\MICROSOFT VISUAL STUDIO 11.0\VC\INCLUDE\VECTOR
C:\PROGRAM FILES (X86)\MICROSOFT VISUAL STUDIO 11.0\VC\INCLUDE\SSTREAM
C:\PROGRAM FILES (X86)\MICROSOFT VISUAL STUDIO 11.0\VC\INCLUDE\IOMANIP
C:\PROGRAM FILES (X86)\MICROSOFT VISUAL STUDIO 11.0\VC\INCLUDE\XLOCMON
C:\PROGRAM FILES (X86)\MICROSOFT VISUAL STUDIO 11.0\VC\INCLUDE\XLOCTIME
C:\PROGRAM FILES (X86)\MICROSOFT VISUAL STUDIO 11.0\VC\INCLUDE\FSTREAM
C:\PROGRAM FILES (X86)\MICROSOFT VISUAL STUDIO 11.0\VC\INCLUDE\ALGORITHM
C:\DEVELOPER\OPENFRAMEWORKS\OF_V0.8.4_VS_RELEASE\LIBS\OPENFRAMEWORKS\UTILS\OFFILEUTILS.H
C:\DEVELOPER\OPENFRAMEWORKS\OF_V0.8.4_VS_RELEASE\LIBS\POCO\INCLUDE\POCO\FILE.H
C:\DEVELOPER\OPENFRAMEWORKS\OF_V0.8.4_VS_RELEASE\LIBS\POCO\INCLUDE\POCO\FOUNDATION.H
C:\DEVELOPER\OPENFRAMEWORKS\OF_V0.8.4_VS_RELEASE\LIBS\POCO\INCLUDE\POCO\CONFIG.H
C:\DEVELOPER\OPENFRAMEWORKS\OF_V0.8.4_VS_RELEASE\LIBS\POCO\INCLUDE\POCO\PLATFORM.H
C:\DEVELOPER\OPENFRAMEWORKS\OF_V0.8.4_VS_RELEASE\LIBS\POCO\INCLUDE\POCO\PLATFORM_WIN32.H
C:\DEVELOPER\OPENFRAMEWORKS\OF_V0.8.4_VS_RELEASE\LIBS\POCO\INCLUDE\POCO\BUGCHECK.H
C:\DEVELOPER\OPENFRAMEWORKS\OF_V0.8.4_VS_RELEASE\LIBS\POCO\INCLUDE\POCO\TYPES.H
C:\DEVELOPER\OPENFRAMEWORKS\OF_V0.8.4_VS_RELEASE\LIBS\POCO\INCLUDE\POCO\TIMESTAMP.H
C:\DEVELOPER\OPENFRAMEWORKS\OF_V0.8.4_VS_RELEASE\LIBS\POCO\INCLUDE\POCO\FILE_WIN32U.H
C:\DEVELOPER\OPENFRAMEWORKS\OF_V0.8.4_VS_RELEASE\LIBS\OPENFRAMEWORKS\UTILS\OFLOG.H
C:\DEVELOPER\OPENFRAMEWORKS\OF_V0.8.4_VS_RELEASE\LIBS\OPENFRAMEWORKS\TYPES\OFTYPES.H
C:\DEVELOPER\OPENFRAMEWORKS\OF_V0.8.4_VS_RELEASE\LIBS\OPENFRAMEWORKS\TYPES\OFCOLOR.H
C:\DEVELOPER\OPENFRAMEWORKS\OF_V0.8.4_VS_RELEASE\LIBS\OPENFRAMEWORKS\MATH\OFMATH.H
C:\DEVELOPER\OPENFRAMEWORKS\OF_V0.8.4_VS_RELEASE\LIBS\OPENFRAMEWORKS\TYPES\OFPOINT.H
C:\DEVELOPER\OPENFRAMEWORKS\OF_V0.8.4_VS_RELEASE\LIBS\OPENFRAMEWORKS\MATH\OFVEC3F.H
C:\DEVELOPER\OPENFRAMEWORKS\OF_V0.8.4_VS_RELEASE\LIBS\OPENFRAMEWORKS\MATH\OFVEC2F.H
C:\DEVELOPER\OPENFRAMEWORKS\OF_V0.8.4_VS_RELEASE\LIBS\OPENFRAMEWORKS\MATH\OFVEC4F.H
C:\PROGRAM FILES (X86)\MICROSOFT VISUAL STUDIO 11.0\VC\INCLUDE\MEMORY
C:\DEVELOPER\OPENFRAMEWORKS\OF_V0.8.4_VS_RELEASE\LIBS\POCO\INCLUDE\POCO\MUTEX.H
C:\DEVELOPER\OPENFRAMEWORKS\OF_V0.8.4_VS_RELEASE\LIBS\POCO\INCLUDE\POCO\EXCEPTION.H
C:\DEVELOPER\OPENFRAMEWORKS\OF_V0.8.4_VS_RELEASE\LIBS\POCO\INCLUDE\POCO\SCOPEDLOCK.H
C:\DEVELOPER\OPENFRAMEWORKS\OF_V0.8.4_VS_RELEASE\LIBS\POCO\INCLUDE\POCO\MUTEX_WIN32.H
C:\DEVELOPER\OPENFRAMEWORKS\OF_V0.8.4_VS_RELEASE\LIBS\POCO\INCLUDE\POCO\UNWINDOWS.H
C:\DEVELOPER\OPENFRAMEWORKS\OF_V0.8.4_VS_RELEASE\LIBS\OPENFRAMEWORKS\UTILS\OFSYSTEMUTILS.H
C:\DEVELOPER\OPENFRAMEWORKS\OF_V0.8.4_VS_RELEASE\LIBS\OPENFRAMEWORKS\UTILS\OFTHREAD.H
C:\DEVELOPER\OPENFRAMEWORKS\OF_V0.8.4_VS_RELEASE\LIBS\POCO\INCLUDE\POCO\ATOMICCOUNTER.H
C:\DEVELOPER\OPENFRAMEWORKS\OF_V0.8.4_VS_RELEASE\LIBS\POCO\INCLUDE\POCO\THREAD.H
C:\DEVELOPER\OPENFRAMEWORKS\OF_V0.8.4_VS_RELEASE\LIBS\POCO\INCLUDE\POCO\THREAD_WIN32.H
C:\DEVELOPER\OPENFRAMEWORKS\OF_V0.8.4_VS_RELEASE\LIBS\POCO\INCLUDE\POCO\RUNNABLE.H
C:\DEVELOPER\OPENFRAMEWORKS\OF_V0.8.4_VS_RELEASE\LIBS\OPENFRAMEWORKS\UTILS\OFURLFILELOADER.H
C:\PROGRAM FILES (X86)\MICROSOFT VISUAL STUDIO 11.0\VC\INCLUDE\DEQUE
C:\PROGRAM FILES (X86)\MICROSOFT VISUAL STUDIO 11.0\VC\INCLUDE\QUEUE
C:\DEVELOPER\OPENFRAMEWORKS\OF_V0.8.4_VS_RELEASE\LIBS\OPENFRAMEWORKS\EVENTS\OFEVENTS.H
C:\DEVELOPER\OPENFRAMEWORKS\OF_V0.8.4_VS_RELEASE\LIBS\OPENFRAMEWORKS\EVENTS\OFEVENTUTILS.H
C:\DEVELOPER\OPENFRAMEWORKS\OF_V0.8.4_VS_RELEASE\LIBS\POCO\INCLUDE\POCO\PRIORITYEVENT.H
C:\DEVELOPER\OPENFRAMEWORKS\OF_V0.8.4_VS_RELEASE\LIBS\POCO\INCLUDE\POCO\ABSTRACTEVENT.H
C:\DEVELOPER\OPENFRAMEWORKS\OF_V0.8.4_VS_RELEASE\LIBS\POCO\INCLUDE\POCO\SINGLETONHOLDER.H
C:\DEVELOPER\OPENFRAMEWORKS\OF_V0.8.4_VS_RELEASE\LIBS\POCO\INCLUDE\POCO\SHAREDPTR.H
C:\DEVELOPER\OPENFRAMEWORKS\OF_V0.8.4_VS_RELEASE\LIBS\POCO\INCLUDE\POCO\ACTIVERESULT.H
C:\DEVELOPER\OPENFRAMEWORKS\OF_V0.8.4_VS_RELEASE\LIBS\POCO\INCLUDE\POCO\EVENT.H
C:\DEVELOPER\OPENFRAMEWORKS\OF_V0.8.4_VS_RELEASE\LIBS\POCO\INCLUDE\POCO\EVENT_WIN32.H
C:\DEVELOPER\OPENFRAMEWORKS\OF_V0.8.4_VS_RELEASE\LIBS\POCO\INCLUDE\POCO\REFCOUNTEDOBJECT.H
C:\DEVELOPER\OPENFRAMEWORKS\OF_V0.8.4_VS_RELEASE\LIBS\POCO\INCLUDE\POCO\ACTIVEMETHOD.H
C:\DEVELOPER\OPENFRAMEWORKS\OF_V0.8.4_VS_RELEASE\LIBS\POCO\INCLUDE\POCO\ACTIVERUNNABLE.H
C:\DEVELOPER\OPENFRAMEWORKS\OF_V0.8.4_VS_RELEASE\LIBS\POCO\INCLUDE\POCO\AUTOPTR.H
C:\DEVELOPER\OPENFRAMEWORKS\OF_V0.8.4_VS_RELEASE\LIBS\POCO\INCLUDE\POCO\ACTIVESTARTER.H
C:\DEVELOPER\OPENFRAMEWORKS\OF_V0.8.4_VS_RELEASE\LIBS\POCO\INCLUDE\POCO\THREADPOOL.H
C:\DEVELOPER\OPENFRAMEWORKS\OF_V0.8.4_VS_RELEASE\LIBS\POCO\INCLUDE\POCO\PRIORITYSTRATEGY.H
C:\DEVELOPER\OPENFRAMEWORKS\OF_V0.8.4_VS_RELEASE\LIBS\POCO\INCLUDE\POCO\NOTIFICATIONSTRATEGY.H
C:\DEVELOPER\OPENFRAMEWORKS\OF_V0.8.4_VS_RELEASE\LIBS\POCO\INCLUDE\POCO\ABSTRACTPRIORITYDELEGATE.H
C:\DEVELOPER\OPENFRAMEWORKS\OF_V0.8.4_VS_RELEASE\LIBS\POCO\INCLUDE\POCO\ABSTRACTDELEGATE.H
C:\DEVELOPER\OPENFRAMEWORKS\OF_V0.8.4_VS_RELEASE\LIBS\POCO\INCLUDE\POCO\PRIORITYDELEGATE.H
C:\DEVELOPER\OPENFRAMEWORKS\OF_V0.8.4_VS_RELEASE\LIBS\POCO\INCLUDE\POCO\PRIORITYEXPIRE.H
C:\DEVELOPER\OPENFRAMEWORKS\OF_V0.8.4_VS_RELEASE\LIBS\POCO\INCLUDE\POCO\FUNCTIONPRIORITYDELEGATE.H
C:\DEVELOPER\OPENFRAMEWORKS\OF_V0.8.4_VS_RELEASE\LIBS\OPENFRAMEWORKS\EVENTS\OFDELEGATE.H
C:\DEVELOPER\OPENFRAMEWORKS\OF_V0.8.4_VS_RELEASE\LIBS\POCO\INCLUDE\POCO\CONDITION.H
C:\DEVELOPER\OPENFRAMEWORKS\OF_V0.8.4_VS_RELEASE\LIBS\POCO\INCLUDE\POCO\SCOPEDUNLOCK.H
C:\DEVELOPER\OPENFRAMEWORKS\OF_V0.8.4_VS_RELEASE\LIBS\OPENFRAMEWORKS\UTILS\OFUTILS.H
C:\PROGRAM FILES (X86)\MICROSOFT VISUAL STUDIO 11.0\VC\INCLUDE\BITSET
C:\PROGRAM FILES (X86)\WINDOWS KITS\8.0\INCLUDE\UM\SHELLAPI.H
C:\DEVELOPER\OPENFRAMEWORKS\OF_V0.8.4_VS_RELEASE\LIBS\POCO\INCLUDE\POCO\PATH.H
C:\DEVELOPER\OPENFRAMEWORKS\OF_V0.8.4_VS_RELEASE\LIBS\OPENFRAMEWORKS\TYPES\OFBASETYPES.H
C:\DEVELOPER\OPENFRAMEWORKS\OF_V0.8.4_VS_RELEASE\LIBS\OPENFRAMEWORKS\TYPES\OFRECTANGLE.H
C:\DEVELOPER\OPENFRAMEWORKS\OF_V0.8.4_VS_RELEASE\LIBS\OPENFRAMEWORKS\3D\OFMESH.H
C:\DEVELOPER\OPENFRAMEWORKS\OF_V0.8.4_VS_RELEASE\LIBS\OPENFRAMEWORKS\GL\OFGLUTILS.H
C:\DEVELOPER\OPENFRAMEWORKS\OF_V0.8.4_VS_RELEASE\LIBS\OPENFRAMEWORKS\GRAPHICS\OFPIXELS.H
C:\DEVELOPER\OPENFRAMEWORKS\OF_V0.8.4_VS_RELEASE\LIBS\OPENFRAMEWORKS\MATH\OFMATRIX4X4.H
C:\DEVELOPER\OPENFRAMEWORKS\OF_V0.8.4_VS_RELEASE\LIBS\OPENFRAMEWORKS\MATH\OFQUATERNION.H
C:\DEVELOPER\OPENFRAMEWORKS\OF_V0.8.4_VS_RELEASE\LIBS\OPENFRAMEWORKS\UTILS\OFXML.H
C:\PROGRAM FILES (X86)\MICROSOFT VISUAL STUDIO 11.0\VC\INCLUDE\NUMERIC
C:\DEVELOPER\OPENFRAMEWORKS\OF_V0.8.4_VS_RELEASE\LIBS\POCO\INCLUDE\POCO\DOM\DOCUMENT.H
C:\DEVELOPER\OPENFRAMEWORKS\OF_V0.8.4_VS_RELEASE\LIBS\POCO\INCLUDE\POCO\XML\XML.H
C:\DEVELOPER\OPENFRAMEWORKS\OF_V0.8.4_VS_RELEASE\LIBS\POCO\INCLUDE\POCO\DOM\ABSTRACTCONTAINERNODE.H
C:\DEVELOPER\OPENFRAMEWORKS\OF_V0.8.4_VS_RELEASE\LIBS\POCO\INCLUDE\POCO\DOM\ABSTRACTNODE.H
C:\DEVELOPER\OPENFRAMEWORKS\OF_V0.8.4_VS_RELEASE\LIBS\POCO\INCLUDE\POCO\DOM\NODE.H
C:\DEVELOPER\OPENFRAMEWORKS\OF_V0.8.4_VS_RELEASE\LIBS\POCO\INCLUDE\POCO\DOM\EVENTTARGET.H
C:\DEVELOPER\OPENFRAMEWORKS\OF_V0.8.4_VS_RELEASE\LIBS\POCO\INCLUDE\POCO\DOM\DOMOBJECT.H
C:\DEVELOPER\OPENFRAMEWORKS\OF_V0.8.4_VS_RELEASE\LIBS\POCO\INCLUDE\POCO\XML\XMLSTRING.H
C:\DEVELOPER\OPENFRAMEWORKS\OF_V0.8.4_VS_RELEASE\LIBS\POCO\INCLUDE\POCO\SAX\NAMESPACESUPPORT.H
C:\PROGRAM FILES (X86)\MICROSOFT VISUAL STUDIO 11.0\VC\INCLUDE\SET
C:\PROGRAM FILES (X86)\MICROSOFT VISUAL STUDIO 11.0\VC\INCLUDE\XTREE
C:\PROGRAM FILES (X86)\MICROSOFT VISUAL STUDIO 11.0\VC\INCLUDE\MAP
C:\DEVELOPER\OPENFRAMEWORKS\OF_V0.8.4_VS_RELEASE\LIBS\POCO\INCLUDE\POCO\DOM\MUTATIONEVENT.H
C:\DEVELOPER\OPENFRAMEWORKS\OF_V0.8.4_VS_RELEASE\LIBS\POCO\INCLUDE\POCO\DOM\EVENT.H
C:\DEVELOPER\OPENFRAMEWORKS\OF_V0.8.4_VS_RELEASE\LIBS\POCO\INCLUDE\POCO\DOM\DOCUMENTEVENT.H
C:\DEVELOPER\OPENFRAMEWORKS\OF_V0.8.4_VS_RELEASE\LIBS\POCO\INCLUDE\POCO\DOM\ELEMENT.H
C:\DEVELOPER\OPENFRAMEWORKS\OF_V0.8.4_VS_RELEASE\LIBS\POCO\INCLUDE\POCO\XML\NAME.H
C:\DEVELOPER\OPENFRAMEWORKS\OF_V0.8.4_VS_RELEASE\LIBS\POCO\INCLUDE\POCO\XML\NAMEPOOL.H
C:\DEVELOPER\OPENFRAMEWORKS\OF_V0.8.4_VS_RELEASE\LIBS\POCO\INCLUDE\POCO\AUTORELEASEPOOL.H
C:\PROGRAM FILES (X86)\MICROSOFT VISUAL STUDIO 11.0\VC\INCLUDE\LIST
C:\DEVELOPER\OPENFRAMEWORKS\OF_V0.8.4_VS_RELEASE\LIBS\POCO\INCLUDE\POCO\DOM\DOCUMENTFRAGMENT.H
C:\DEVELOPER\OPENFRAMEWORKS\OF_V0.8.4_VS_RELEASE\LIBS\POCO\INCLUDE\POCO\DOM\DOMPARSER.H
C:\DEVELOPER\OPENFRAMEWORKS\OF_V0.8.4_VS_RELEASE\LIBS\POCO\INCLUDE\POCO\SAX\SAXPARSER.H
C:\DEVELOPER\OPENFRAMEWORKS\OF_V0.8.4_VS_RELEASE\LIBS\POCO\INCLUDE\POCO\SAX\XMLREADER.H
C:\DEVELOPER\OPENFRAMEWORKS\OF_V0.8.4_VS_RELEASE\LIBS\POCO\INCLUDE\POCO\XML\PARSERENGINE.H
C:\DEVELOPER\OPENFRAMEWORKS\OF_V0.8.4_VS_RELEASE\LIBS\POCO\INCLUDE\POCO\XML\EXPAT.H
C:\DEVELOPER\OPENFRAMEWORKS\OF_V0.8.4_VS_RELEASE\LIBS\POCO\INCLUDE\POCO\XML\EXPAT_EXTERNAL.H
C:\DEVELOPER\OPENFRAMEWORKS\OF_V0.8.4_VS_RELEASE\LIBS\POCO\INCLUDE\POCO\XML\XMLSTREAM.H
C:\DEVELOPER\OPENFRAMEWORKS\OF_V0.8.4_VS_RELEASE\LIBS\POCO\INCLUDE\POCO\SAX\LOCATOR.H
C:\DEVELOPER\OPENFRAMEWORKS\OF_V0.8.4_VS_RELEASE\LIBS\POCO\INCLUDE\POCO\TEXTENCODING.H
C:\DEVELOPER\OPENFRAMEWORKS\OF_V0.8.4_VS_RELEASE\LIBS\POCO\INCLUDE\POCO\DOM\DOMEXCEPTION.H
C:\DEVELOPER\OPENFRAMEWORKS\OF_V0.8.4_VS_RELEASE\LIBS\POCO\INCLUDE\POCO\XML\XMLEXCEPTION.H
C:\DEVELOPER\OPENFRAMEWORKS\OF_V0.8.4_VS_RELEASE\LIBS\POCO\INCLUDE\POCO\SAX\SAXEXCEPTION.H
C:\DEVELOPER\OPENFRAMEWORKS\OF_V0.8.4_VS_RELEASE\LIBS\POCO\INCLUDE\POCO\XML\XMLWRITER.H
C:\DEVELOPER\OPENFRAMEWORKS\OF_V0.8.4_VS_RELEASE\LIBS\POCO\INCLUDE\POCO\SAX\CONTENTHANDLER.H
C:\DEVELOPER\OPENFRAMEWORKS\OF_V0.8.4_VS_RELEASE\LIBS\POCO\INCLUDE\POCO\SAX\LEXICALHANDLER.H
C:\DEVELOPER\OPENFRAMEWORKS\OF_V0.8.4_VS_RELEASE\LIBS\POCO\INCLUDE\POCO\SAX\DTDHANDLER.H
C:\DEVELOPER\OPENFRAMEWORKS\OF_V0.8.4_VS_RELEASE\LIBS\POCO\INCLUDE\POCO\STREAMCONVERTER.H
C:\DEVELOPER\OPENFRAMEWORKS\OF_V0.8.4_VS_RELEASE\LIBS\POCO\INCLUDE\POCO\UNBUFFEREDSTREAMBUF.H
C:\DEVELOPER\OPENFRAMEWORKS\OF_V0.8.4_VS_RELEASE\LIBS\POCO\INCLUDE\POCO\STREAMUTIL.H
C:\DEVELOPER\OPENFRAMEWORKS\OF_V0.8.4_VS_RELEASE\LIBS\POCO\INCLUDE\POCO\DOM\DOMWRITER.H
C:\DEVELOPER\OPENFRAMEWORKS\OF_V0.8.4_VS_RELEASE\LIBS\POCO\INCLUDE\POCO\DOM\ATTR.H
C:\DEVELOPER\OPENFRAMEWORKS\OF_V0.8.4_VS_RELEASE\LIBS\POCO\INCLUDE\POCO\DOM\TEXT.H
C:\DEVELOPER\OPENFRAMEWORKS\OF_V0.8.4_VS_RELEASE\LIBS\POCO\INCLUDE\POCO\DOM\CHARACTERDATA.H
C:\DEVELOPER\OPENFRAMEWORKS\OF_V0.8.4_VS_RELEASE\LIBS\POCO\INCLUDE\POCO\DOM\NODEITERATOR.H
C:\DEVELOPER\OPENFRAMEWORKS\OF_V0.8.4_VS_RELEASE\LIBS\POCO\INCLUDE\POCO\DOM\NODEFILTER.H
C:\DEVELOPER\OPENFRAMEWORKS\OF_V0.8.4_VS_RELEASE\LIBS\POCO\INCLUDE\POCO\DOM\NAMEDNODEMAP.H
C:\DEVELOPER\OPENFRAMEWORKS\OF_V0.8.4_VS_RELEASE\LIBS\POCO\INCLUDE\POCO\DOM\CHILDNODESLIST.H
C:\DEVELOPER\OPENFRAMEWORKS\OF_V0.8.4_VS_RELEASE\LIBS\POCO\INCLUDE\POCO\DOM\NODELIST.H
C:\DEVELOPER\OPENFRAMEWORKS\OF_V0.8.4_VS_RELEASE\LIBS\OPENFRAMEWORKS\TYPES\OFPARAMETER.H
C:\DEVELOPER\OPENFRAMEWORKS\OF_V0.8.4_VS_RELEASE\LIBS\OPENFRAMEWORKS\TYPES\OFPARAMETERGROUP.H
C:\DEVELOPER\OPENFRAMEWORKS\OF_V0.8.4_VS_RELEASE\LIBS\POCO\INCLUDE\POCO\ANY.H
C:\DEVELOPER\OPENFRAMEWORKS\OF_V0.8.4_VS_RELEASE\LIBS\OPENFRAMEWORKS\MATH\OFVECTORMATH.H
C:\DEVELOPER\OPENFRAMEWORKS\OF_V0.8.4_VS_RELEASE\LIBS\OPENFRAMEWORKS\MATH\OFMATRIX3X3.H
C:\DEVELOPER\OPENFRAMEWORKS\OF_V0.8.4_VS_RELEASE\LIBS\OPENFRAMEWORKS\COMMUNICATION\OFSERIAL.H
C:\PROGRAM FILES (X86)\MICROSOFT VISUAL STUDIO 11.0\VC\INCLUDE\TCHAR.H
C:\PROGRAM FILES (X86)\WINDOWS KITS\8.0\INCLUDE\UM\SETUPAPI.H
C:\PROGRAM FILES (X86)\WINDOWS KITS\8.0\INCLUDE\UM\SPAPIDEF.H
C:\PROGRAM FILES (X86)\WINDOWS KITS\8.0\INCLUDE\UM\COMMCTRL.H
C:\PROGRAM FILES (X86)\WINDOWS KITS\8.0\INCLUDE\UM\PRSHT.H
C:\PROGRAM FILES (X86)\WINDOWS KITS\8.0\INCLUDE\SHARED\DEVPROPDEF.H
C:\PROGRAM FILES (X86)\WINDOWS KITS\8.0\INCLUDE\UM\REGSTR.H
C:\PROGRAM FILES (X86)\WINDOWS KITS\8.0\INCLUDE\UM\WINIOCTL.H
C:\DEVELOPER\OPENFRAMEWORKS\OF_V0.8.4_VS_RELEASE\LIBS\OPENFRAMEWORKS\COMMUNICATION\OFARDUINO.H
C:\DEVELOPER\OPENFRAMEWORKS\OF_V0.8.4_VS_RELEASE\LIBS\OPENFRAMEWORKS\GL\OFFBO.H
C:\DEVELOPER\OPENFRAMEWORKS\OF_V0.8.4_VS_RELEASE\LIBS\OPENFRAMEWORKS\GL\OFTEXTURE.H
C:\DEVELOPER\OPENFRAMEWORKS\OF_V0.8.4_VS_RELEASE\LIBS\OPENFRAMEWORKS\GL\OFVBOMESH.H
C:\DEVELOPER\OPENFRAMEWORKS\OF_V0.8.4_VS_RELEASE\LIBS\OPENFRAMEWORKS\GL\OFVBO.H
C:\DEVELOPER\OPENFRAMEWORKS\OF_V0.8.4_VS_RELEASE\LIBS\OPENFRAMEWORKS\GL\OFGLRENDERER.H
C:\DEVELOPER\OPENFRAMEWORKS\OF_V0.8.4_VS_RELEASE\LIBS\OPENFRAMEWORKS\GRAPHICS\OFPOLYLINE.H
C:\PROGRAM FILES (X86)\MICROSOFT VISUAL STUDIO 11.0\VC\INCLUDE\STACK
C:\DEVELOPER\OPENFRAMEWORKS\OF_V0.8.4_VS_RELEASE\LIBS\OPENFRAMEWORKS\GRAPHICS\OFGRAPHICS.H
C:\DEVELOPER\OPENFRAMEWORKS\OF_V0.8.4_VS_RELEASE\LIBS\OPENFRAMEWORKS\UTILS\OFMATRIXSTACK.H
C:\DEVELOPER\OPENFRAMEWORKS\OF_V0.8.4_VS_RELEASE\LIBS\OPENFRAMEWORKS\GL\OFLIGHT.H
C:\DEVELOPER\OPENFRAMEWORKS\OF_V0.8.4_VS_RELEASE\LIBS\OPENFRAMEWORKS\3D\OFNODE.H
C:\DEVELOPER\OPENFRAMEWORKS\OF_V0.8.4_VS_RELEASE\LIBS\OPENFRAMEWORKS\3D\OF3DUTILS.H
C:\DEVELOPER\OPENFRAMEWORKS\OF_V0.8.4_VS_RELEASE\LIBS\OPENFRAMEWORKS\GRAPHICS\OF3DGRAPHICS.H
C:\DEVELOPER\OPENFRAMEWORKS\OF_V0.8.4_VS_RELEASE\LIBS\OPENFRAMEWORKS\3D\OF3DPRIMITIVES.H
C:\DEVELOPER\OPENFRAMEWORKS\OF_V0.8.4_VS_RELEASE\LIBS\OPENFRAMEWORKS\GL\OFMATERIAL.H
C:\DEVELOPER\OPENFRAMEWORKS\OF_V0.8.4_VS_RELEASE\LIBS\OPENFRAMEWORKS\GL\OFSHADER.H
C:\DEVELOPER\OPENFRAMEWORKS\OF_V0.8.4_VS_RELEASE\LIBS\POCO\INCLUDE\POCO\REGULAREXPRESSION.H
C:\DEVELOPER\OPENFRAMEWORKS\OF_V0.8.4_VS_RELEASE\LIBS\OPENFRAMEWORKS\APP\OFAPPBASEWINDOW.H
C:\DEVELOPER\OPENFRAMEWORKS\OF_V0.8.4_VS_RELEASE\LIBS\OPENFRAMEWORKS\GL\OFGLPROGRAMMABLERENDERER.H
C:\DEVELOPER\OPENFRAMEWORKS\OF_V0.8.4_VS_RELEASE\LIBS\OPENFRAMEWORKS\GRAPHICS\OFCAIRORENDERER.H
C:\DEVELOPER\OPENFRAMEWORKS\OF_V0.8.4_VS_RELEASE\LIBS\CAIRO\INCLUDE\CAIRO\CAIRO-FEATURES.H
C:\DEVELOPER\OPENFRAMEWORKS\OF_V0.8.4_VS_RELEASE\LIBS\CAIRO\INCLUDE\CAIRO\CAIRO-PDF.H
C:\DEVELOPER\OPENFRAMEWORKS\OF_V0.8.4_VS_RELEASE\LIBS\CAIRO\INCLUDE\CAIRO\CAIRO.H
C:\DEVELOPER\OPENFRAMEWORKS\OF_V0.8.4_VS_RELEASE\LIBS\CAIRO\INCLUDE\CAIRO\CAIRO-VERSION.H
C:\DEVELOPER\OPENFRAMEWORKS\OF_V0.8.4_VS_RELEASE\LIBS\CAIRO\INCLUDE\CAIRO\CAIRO-DEPRECATED.H
C:\DEVELOPER\OPENFRAMEWORKS\OF_V0.8.4_VS_RELEASE\LIBS\CAIRO\INCLUDE\CAIRO\CAIRO-SVG.H
C:\DEVELOPER\OPENFRAMEWORKS\OF_V0.8.4_VS_RELEASE\LIBS\OPENFRAMEWORKS\GRAPHICS\OFPATH.H
C:\DEVELOPER\OPENFRAMEWORKS\OF_V0.8.4_VS_RELEASE\LIBS\OPENFRAMEWORKS\GRAPHICS\OFTESSELLATOR.H
C:\DEVELOPER\OPENFRAMEWORKS\OF_V0.8.4_VS_RELEASE\LIBS\OPENFRAMEWORKS\GRAPHICS\OFIMAGE.H
C:\DEVELOPER\OPENFRAMEWORKS\OF_V0.8.4_VS_RELEASE\LIBS\OPENFRAMEWORKS\GRAPHICS\OFRENDERERCOLLECTION.H
C:\DEVELOPER\OPENFRAMEWORKS\OF_V0.8.4_VS_RELEASE\LIBS\OPENFRAMEWORKS\GRAPHICS\OFTRUETYPEFONT.H
C:\DEVELOPER\OPENFRAMEWORKS\OF_V0.8.4_VS_RELEASE\LIBS\OPENFRAMEWORKS\APP\OFBASEAPP.H
C:\DEVELOPER\OPENFRAMEWORKS\OF_V0.8.4_VS_RELEASE\LIBS\OPENFRAMEWORKS\APP\OFAPPRUNNER.H
C:\DEVELOPER\OPENFRAMEWORKS\OF_V0.8.4_VS_RELEASE\LIBS\OPENFRAMEWORKS\SOUND\OFSOUNDSTREAM.H
C:\DEVELOPER\OPENFRAMEWORKS\OF_V0.8.4_VS_RELEASE\LIBS\OPENFRAMEWORKS\SOUND\OFBASESOUNDSTREAM.H
C:\DEVELOPER\OPENFRAMEWORKS\OF_V0.8.4_VS_RELEASE\LIBS\OPENFRAMEWORKS\SOUND\OFRTAUDIOSOUNDSTREAM.H
C:\DEVELOPER\OPENFRAMEWORKS\OF_V0.8.4_VS_RELEASE\LIBS\OPENFRAMEWORKS\SOUND\OFSOUNDPLAYER.H
C:\DEVELOPER\OPENFRAMEWORKS\OF_V0.8.4_VS_RELEASE\LIBS\OPENFRAMEWORKS\SOUND\OFBASESOUNDPLAYER.H
C:\DEVELOPER\OPENFRAMEWORKS\OF_V0.8.4_VS_RELEASE\LIBS\OPENFRAMEWORKS\SOUND\OFFMODSOUNDPLAYER.H
C:\DEVELOPER\OPENFRAMEWORKS\OF_V0.8.4_VS_RELEASE\LIBS\FMODEX\INCLUDE\FMOD.H
C:\DEVELOPER\OPENFRAMEWORKS\OF_V0.8.4_VS_RELEASE\LIBS\FMODEX\INCLUDE\FMOD_CODEC.H
C:\DEVELOPER\OPENFRAMEWORKS\OF_V0.8.4_VS_RELEASE\LIBS\FMODEX\INCLUDE\FMOD_DSP.H
C:\DEVELOPER\OPENFRAMEWORKS\OF_V0.8.4_VS_RELEASE\LIBS\FMODEX\INCLUDE\FMOD_MEMORYINFO.H
C:\DEVELOPER\OPENFRAMEWORKS\OF_V0.8.4_VS_RELEASE\LIBS\FMODEX\INCLUDE\FMOD_ERRORS.H
C:\DEVELOPER\OPENFRAMEWORKS\OF_V0.8.4_VS_RELEASE\LIBS\OPENFRAMEWORKS\VIDEO\OFVIDEOGRABBER.H
C:\DEVELOPER\OPENFRAMEWORKS\OF_V0.8.4_VS_RELEASE\LIBS\OPENFRAMEWORKS\VIDEO\OFDIRECTSHOWGRABBER.H
C:\DEVELOPER\OPENFRAMEWORKS\OF_V0.8.4_VS_RELEASE\LIBS\VIDEOINPUT\INCLUDE\VIDEOINPUT.H
C:\DEVELOPER\OPENFRAMEWORKS\OF_V0.8.4_VS_RELEASE\LIBS\OPENFRAMEWORKS\VIDEO\OFVIDEOPLAYER.H
C:\DEVELOPER\OPENFRAMEWORKS\OF_V0.8.4_VS_RELEASE\LIBS\OPENFRAMEWORKS\VIDEO\OFQUICKTIMEPLAYER.H
C:\DEVELOPER\OPENFRAMEWORKS\OF_V0.8.4_VS_RELEASE\LIBS\OPENFRAMEWORKS\VIDEO\OFQTUTILS.H
C:\DEVELOPER\OPENFRAMEWORKS\OF_V0.8.4_VS_RELEASE\LIBS\QUICKTIME\INCLUDE\QTML.H
C:\DEVELOPER\OPENFRAMEWORKS\OF_V0.8.4_VS_RELEASE\LIBS\QUICKTIME\INCLUDE\MACTYPES.H
C:\DEVELOPER\OPENFRAMEWORKS\OF_V0.8.4_VS_RELEASE\LIBS\QUICKTIME\INCLUDE\CONDITIONALMACROS.H
C:\DEVELOPER\OPENFRAMEWORKS\OF_V0.8.4_VS_RELEASE\LIBS\QUICKTIME\INCLUDE\MACMEMORY.H
C:\DEVELOPER\OPENFRAMEWORKS\OF_V0.8.4_VS_RELEASE\LIBS\QUICKTIME\INCLUDE\MIXEDMODE.H
C:\DEVELOPER\OPENFRAMEWORKS\OF_V0.8.4_VS_RELEASE\LIBS\QUICKTIME\INCLUDE\MACWINDOWS.H
C:\DEVELOPER\OPENFRAMEWORKS\OF_V0.8.4_VS_RELEASE\LIBS\QUICKTIME\INCLUDE\ALIASES.H
C:\DEVELOPER\OPENFRAMEWORKS\OF_V0.8.4_VS_RELEASE\LIBS\QUICKTIME\INCLUDE\APPLETALK.H
C:\DEVELOPER\OPENFRAMEWORKS\OF_V0.8.4_VS_RELEASE\LIBS\QUICKTIME\INCLUDE\OSUTILS.H
C:\DEVELOPER\OPENFRAMEWORKS\OF_V0.8.4_VS_RELEASE\LIBS\QUICKTIME\INCLUDE\PATCHES.H
C:\DEVELOPER\OPENFRAMEWORKS\OF_V0.8.4_VS_RELEASE\LIBS\QUICKTIME\INCLUDE\DATETIMEUTILS.H
C:\DEVELOPER\OPENFRAMEWORKS\OF_V0.8.4_VS_RELEASE\LIBS\QUICKTIME\INCLUDE\ENDIAN.H
C:\DEVELOPER\OPENFRAMEWORKS\OF_V0.8.4_VS_RELEASE\LIBS\QUICKTIME\INCLUDE\FILES.H
C:\DEVELOPER\OPENFRAMEWORKS\OF_V0.8.4_VS_RELEASE\LIBS\QUICKTIME\INCLUDE\TEXTCOMMON.H
C:\DEVELOPER\OPENFRAMEWORKS\OF_V0.8.4_VS_RELEASE\LIBS\QUICKTIME\INCLUDE\UTCUTILS.H
C:\DEVELOPER\OPENFRAMEWORKS\OF_V0.8.4_VS_RELEASE\LIBS\QUICKTIME\INCLUDE\MACERRORS.H
C:\DEVELOPER\OPENFRAMEWORKS\OF_V0.8.4_VS_RELEASE\LIBS\QUICKTIME\INCLUDE\FINDER.H
C:\DEVELOPER\OPENFRAMEWORKS\OF_V0.8.4_VS_RELEASE\LIBS\QUICKTIME\INCLUDE\APPLEEVENTS.H
C:\DEVELOPER\OPENFRAMEWORKS\OF_V0.8.4_VS_RELEASE\LIBS\QUICKTIME\INCLUDE\NOTIFICATION.H
C:\DEVELOPER\OPENFRAMEWORKS\OF_V0.8.4_VS_RELEASE\LIBS\QUICKTIME\INCLUDE\EVENTS.H
C:\DEVELOPER\OPENFRAMEWORKS\OF_V0.8.4_VS_RELEASE\LIBS\QUICKTIME\INCLUDE\QUICKDRAW.H
C:\DEVELOPER\OPENFRAMEWORKS\OF_V0.8.4_VS_RELEASE\LIBS\QUICKTIME\INCLUDE\COMPONENTS.H
C:\DEVELOPER\OPENFRAMEWORKS\OF_V0.8.4_VS_RELEASE\LIBS\QUICKTIME\INCLUDE\QUICKDRAWTEXT.H
C:\DEVELOPER\OPENFRAMEWORKS\OF_V0.8.4_VS_RELEASE\LIBS\QUICKTIME\INCLUDE\AEDATAMODEL.H
C:\DEVELOPER\OPENFRAMEWORKS\OF_V0.8.4_VS_RELEASE\LIBS\QUICKTIME\INCLUDE\COLLECTIONS.H
C:\DEVELOPER\OPENFRAMEWORKS\OF_V0.8.4_VS_RELEASE\LIBS\QUICKTIME\INCLUDE\DRAG.H
C:\DEVELOPER\OPENFRAMEWORKS\OF_V0.8.4_VS_RELEASE\LIBS\QUICKTIME\INCLUDE\MENUS.H
C:\DEVELOPER\OPENFRAMEWORKS\OF_V0.8.4_VS_RELEASE\LIBS\QUICKTIME\INCLUDE\FONTS.H
C:\DEVELOPER\OPENFRAMEWORKS\OF_V0.8.4_VS_RELEASE\LIBS\QUICKTIME\INCLUDE\PROCESSES.H
C:\DEVELOPER\OPENFRAMEWORKS\OF_V0.8.4_VS_RELEASE\LIBS\QUICKTIME\INCLUDE\QDOFFSCREEN.H
C:\DEVELOPER\OPENFRAMEWORKS\OF_V0.8.4_VS_RELEASE\LIBS\QUICKTIME\INCLUDE\ICONS.H
C:\DEVELOPER\OPENFRAMEWORKS\OF_V0.8.4_VS_RELEASE\LIBS\QUICKTIME\INCLUDE\CODEFRAGMENTS.H
C:\DEVELOPER\OPENFRAMEWORKS\OF_V0.8.4_VS_RELEASE\LIBS\QUICKTIME\INCLUDE\FIXMATH.H
C:\DEVELOPER\OPENFRAMEWORKS\OF_V0.8.4_VS_RELEASE\LIBS\QUICKTIME\INCLUDE\QUICKTIMECOMPONENTS.H
C:\DEVELOPER\OPENFRAMEWORKS\OF_V0.8.4_VS_RELEASE\LIBS\QUICKTIME\INCLUDE\IMAGECOMPRESSION.H
C:\DEVELOPER\OPENFRAMEWORKS\OF_V0.8.4_VS_RELEASE\LIBS\QUICKTIME\INCLUDE\STANDARDFILE.H
C:\DEVELOPER\OPENFRAMEWORKS\OF_V0.8.4_VS_RELEASE\LIBS\QUICKTIME\INCLUDE\DIALOGS.H
C:\DEVELOPER\OPENFRAMEWORKS\OF_V0.8.4_VS_RELEASE\LIBS\QUICKTIME\INCLUDE\TEXTEDIT.H
C:\DEVELOPER\OPENFRAMEWORKS\OF_V0.8.4_VS_RELEASE\LIBS\QUICKTIME\INCLUDE\CONTROLS.H
C:\DEVELOPER\OPENFRAMEWORKS\OF_V0.8.4_VS_RELEASE\LIBS\QUICKTIME\INCLUDE\MOVIES.H
C:\DEVELOPER\OPENFRAMEWORKS\OF_V0.8.4_VS_RELEASE\LIBS\QUICKTIME\INCLUDE\VIDEO.H
C:\DEVELOPER\OPENFRAMEWORKS\OF_V0.8.4_VS_RELEASE\LIBS\QUICKTIME\INCLUDE\SOUND.H
C:\DEVELOPER\OPENFRAMEWORKS\OF_V0.8.4_VS_RELEASE\LIBS\QUICKTIME\INCLUDE\QUICKTIMEMUSIC.H
C:\DEVELOPER\OPENFRAMEWORKS\OF_V0.8.4_VS_RELEASE\LIBS\QUICKTIME\INCLUDE\TEXTUTILS.H
C:\DEVELOPER\OPENFRAMEWORKS\OF_V0.8.4_VS_RELEASE\LIBS\QUICKTIME\INCLUDE\NUMBERFORMATTING.H
C:\DEVELOPER\OPENFRAMEWORKS\OF_V0.8.4_VS_RELEASE\LIBS\QUICKTIME\INCLUDE\INTLRESOURCES.H
C:\DEVELOPER\OPENFRAMEWORKS\OF_V0.8.4_VS_RELEASE\LIBS\QUICKTIME\INCLUDE\STRINGCOMPARE.H
C:\DEVELOPER\OPENFRAMEWORKS\OF_V0.8.4_VS_RELEASE\LIBS\QUICKTIME\INCLUDE\SCRIPT.H
C:\DEVELOPER\OPENFRAMEWORKS\OF_V0.8.4_VS_RELEASE\LIBS\QUICKTIME\INCLUDE\MEDIAHANDLERS.H
C:\DEVELOPER\OPENFRAMEWORKS\OF_V0.8.4_VS_RELEASE\LIBS\OPENFRAMEWORKS\3D\OFCAMERA.H
C:\DEVELOPER\OPENFRAMEWORKS\OF_V0.8.4_VS_RELEASE\LIBS\OPENFRAMEWORKS\3D\OFEASYCAM.H
C:\DEVELOPER\OPENFRAMEWORKS\OF_V0.8.4_VS_RELEASE\APPS\MYAPPS\OFXEYEFACETEST\SRC\OFAPP.H
C:\DEVELOPER\OPENFRAMEWORKS\OF_V0.8.4_VS_RELEASE\ADDONS\OFXEYEFACE\SRC\OFXEYEFACE.H
C:\DEVELOPER\OPENFRAMEWORKS\OF_V0.8.4_VS_RELEASE\ADDONS\OFXEYEFACE\LIBS\EYEFACESDK\INCLUDE\EYEFACE.H
C:\DEVELOPER\OPENFRAMEWORKS\OF_V0.8.4_VS_RELEASE\ADDONS\OFXEYEFACE\LIBS\EYEFACESDK\INCLUDE\EYEFACETYPE.H
C:\PROGRAM FILES (X86)\MICROSOFT VISUAL STUDIO 11.0\VC\INCLUDE\DIRECT.H
C:\PROGRAM FILES (X86)\MICROSOFT VISUAL STUDIO 11.0\VC\INCLUDE\IO.H
